EESchema Schematic File Version 2
LIBS:boomerangkeyboard-rescue
LIBS:power
LIBS:device
LIBS:transistors
LIBS:conn
LIBS:linear
LIBS:regul
LIBS:74xx
LIBS:cmos4000
LIBS:adc-dac
LIBS:memory
LIBS:xilinx
LIBS:microcontrollers
LIBS:dsp
LIBS:microchip
LIBS:analog_switches
LIBS:motorola
LIBS:texas
LIBS:intel
LIBS:audio
LIBS:interface
LIBS:digital-audio
LIBS:philips
LIBS:display
LIBS:cypress
LIBS:siliconi
LIBS:opto
LIBS:atmel
LIBS:contrib
LIBS:valves
LIBS:boomerangkeyboard-cache
EELAYER 25 0
EELAYER END
$Descr A4 11693 8268
encoding utf-8
Sheet 1 1
Title ""
Date ""
Rev ""
Comp ""
Comment1 ""
Comment2 ""
Comment3 ""
Comment4 ""
$EndDescr
$Comp
L SW_PUSH SW0:6
U 1 1 57EC678D
P 6800 3200
F 0 "SW0:6" V 6950 3300 50  0000 C CNN
F 1 "SW_MATIAS" H 6800 3100 50  0000 C CNN
F 2 "mycomponents:SW_Matias_Quiet_LED_Hole" H 6800 3200 50  0001 C CNN
F 3 "" H 6800 3200 50  0000 C CNN
	1    6800 3200
	1    0    0    -1  
$EndComp
$Comp
L D D0:6
U 1 1 57EC6855
P 6800 3500
F 0 "D0:6" H 6800 3400 50  0000 C CNN
F 1 "D" H 6800 3624 50  0000 C CNN
F 2 "Diodes_SMD:D-Pak_TO252AA" H 6800 3500 50  0001 C CNN
F 3 "" H 6800 3500 50  0000 C CNN
	1    6800 3500
	1    0    0    -1  
$EndComp
$Comp
L SW_PUSH SW1:6
U 1 1 57EC6E68
P 6800 2450
F 0 "SW1:6" H 6950 2550 50  0000 C CNN
F 1 "SW_MATIAS" H 6800 2350 50  0000 C CNN
F 2 "mycomponents:SW_Matias_Quiet_LED_Hole" H 6800 2450 50  0001 C CNN
F 3 "" H 6800 2450 50  0000 C CNN
	1    6800 2450
	1    0    0    -1  
$EndComp
$Comp
L D D1:6
U 1 1 57EC6E6E
P 6800 2750
F 0 "D1:6" H 6800 2650 50  0000 C CNN
F 1 "D" H 6800 2874 50  0000 C CNN
F 2 "Diodes_SMD:D-Pak_TO252AA" H 6800 2750 50  0001 C CNN
F 3 "" H 6800 2750 50  0000 C CNN
	1    6800 2750
	1    0    0    -1  
$EndComp
$Comp
L SW_PUSH SW2:6
U 1 1 57EC712C
P 6800 1650
F 0 "SW2:6" H 6950 1750 50  0000 C CNN
F 1 "SW_MATIAS" H 6800 1550 50  0000 C CNN
F 2 "mycomponents:SW_Matias_Quiet_LED_Hole" H 6800 1650 50  0001 C CNN
F 3 "" H 6800 1650 50  0000 C CNN
	1    6800 1650
	1    0    0    -1  
$EndComp
$Comp
L D D2:6
U 1 1 57EC7132
P 6800 1950
F 0 "D2:6" H 6800 1850 50  0000 C CNN
F 1 "D" H 6800 2074 50  0000 C CNN
F 2 "Diodes_SMD:D-Pak_TO252AA" H 6800 1950 50  0001 C CNN
F 3 "" H 6800 1950 50  0000 C CNN
	1    6800 1950
	1    0    0    -1  
$EndComp
$Comp
L SW_PUSH SW3:6
U 1 1 57EC713C
P 6800 900
F 0 "SW3:6" H 6950 1000 50  0000 C CNN
F 1 "SW_MATIAS" H 6800 800 50  0000 C CNN
F 2 "mycomponents:SW_Matias_Quiet_LED_Hole" H 6800 900 50  0001 C CNN
F 3 "" H 6800 900 50  0000 C CNN
	1    6800 900 
	1    0    0    -1  
$EndComp
$Comp
L D D3:6
U 1 1 57EC7142
P 6800 1200
F 0 "D3:6" H 6800 1100 50  0000 C CNN
F 1 "D" H 6800 1324 50  0000 C CNN
F 2 "Diodes_SMD:D-Pak_TO252AA" H 6800 1200 50  0001 C CNN
F 3 "" H 6800 1200 50  0000 C CNN
	1    6800 1200
	1    0    0    -1  
$EndComp
$Comp
L SW_PUSH SW0:7
U 1 1 57EC8144
P 7600 3200
F 0 "SW0:7" H 7750 3300 50  0000 C CNN
F 1 "SW_MATIAS" H 7600 3100 50  0000 C CNN
F 2 "mycomponents:SW_Matias_Quiet_LED_Hole" H 7600 3200 50  0001 C CNN
F 3 "" H 7600 3200 50  0000 C CNN
	1    7600 3200
	1    0    0    -1  
$EndComp
$Comp
L D D0:7
U 1 1 57EC814A
P 7600 3500
F 0 "D0:7" H 7600 3400 50  0000 C CNN
F 1 "D" H 7600 3624 50  0000 C CNN
F 2 "Diodes_SMD:D-Pak_TO252AA" H 7600 3500 50  0001 C CNN
F 3 "" H 7600 3500 50  0000 C CNN
	1    7600 3500
	1    0    0    -1  
$EndComp
$Comp
L SW_PUSH SW1:7
U 1 1 57EC8154
P 7600 2450
F 0 "SW1:7" H 7750 2550 50  0000 C CNN
F 1 "SW_MATIAS" H 7600 2350 50  0000 C CNN
F 2 "mycomponents:SW_Matias_Quiet_LED_Hole" H 7600 2450 50  0001 C CNN
F 3 "" H 7600 2450 50  0000 C CNN
	1    7600 2450
	1    0    0    -1  
$EndComp
$Comp
L D D1:7
U 1 1 57EC815A
P 7600 2750
F 0 "D1:7" H 7600 2650 50  0000 C CNN
F 1 "D" H 7600 2874 50  0000 C CNN
F 2 "Diodes_SMD:D-Pak_TO252AA" H 7600 2750 50  0001 C CNN
F 3 "" H 7600 2750 50  0000 C CNN
	1    7600 2750
	1    0    0    -1  
$EndComp
$Comp
L SW_PUSH SW2:7
U 1 1 57EC8164
P 7600 1650
F 0 "SW2:7" H 7750 1750 50  0000 C CNN
F 1 "SW_MATIAS" H 7600 1550 50  0000 C CNN
F 2 "mycomponents:SW_Matias_Quiet_LED_Hole" H 7600 1650 50  0001 C CNN
F 3 "" H 7600 1650 50  0000 C CNN
	1    7600 1650
	1    0    0    -1  
$EndComp
$Comp
L D D2:7
U 1 1 57EC816A
P 7600 1950
F 0 "D2:7" H 7600 1850 50  0000 C CNN
F 1 "D" H 7600 2074 50  0000 C CNN
F 2 "Diodes_SMD:D-Pak_TO252AA" H 7600 1950 50  0001 C CNN
F 3 "" H 7600 1950 50  0000 C CNN
	1    7600 1950
	1    0    0    -1  
$EndComp
$Comp
L SW_PUSH SW3:7
U 1 1 57EC8174
P 7600 900
F 0 "SW3:7" H 7750 1000 50  0000 C CNN
F 1 "SW_MATIAS" H 7600 800 50  0000 C CNN
F 2 "mycomponents:SW_Matias_Quiet_LED_Hole" H 7600 900 50  0001 C CNN
F 3 "" H 7600 900 50  0000 C CNN
	1    7600 900 
	1    0    0    -1  
$EndComp
$Comp
L D D3:7
U 1 1 57EC817A
P 7600 1200
F 0 "D3:7" H 7600 1100 50  0000 C CNN
F 1 "D" H 7600 1324 50  0000 C CNN
F 2 "Diodes_SMD:D-Pak_TO252AA" H 7600 1200 50  0001 C CNN
F 3 "" H 7600 1200 50  0000 C CNN
	1    7600 1200
	1    0    0    -1  
$EndComp
$Comp
L SW_PUSH SW0:8
U 1 1 57EC8614
P 8400 3200
F 0 "SW0:8" H 8550 3300 50  0000 C CNN
F 1 "SW_MATIAS" H 8400 3100 50  0000 C CNN
F 2 "mycomponents:SW_Matias_Quiet_LED_Hole" H 8400 3200 50  0001 C CNN
F 3 "" H 8400 3200 50  0000 C CNN
	1    8400 3200
	1    0    0    -1  
$EndComp
$Comp
L D D0:8
U 1 1 57EC861A
P 8400 3500
F 0 "D0:8" H 8400 3400 50  0000 C CNN
F 1 "D" H 8400 3624 50  0000 C CNN
F 2 "Diodes_SMD:D-Pak_TO252AA" H 8400 3500 50  0001 C CNN
F 3 "" H 8400 3500 50  0000 C CNN
	1    8400 3500
	1    0    0    -1  
$EndComp
$Comp
L SW_PUSH SW1:8
U 1 1 57EC8624
P 8400 2450
F 0 "SW1:8" H 8550 2550 50  0000 C CNN
F 1 "SW_MATIAS" H 8400 2350 50  0000 C CNN
F 2 "mycomponents:SW_Matias_Quiet_LED_Hole" H 8400 2450 50  0001 C CNN
F 3 "" H 8400 2450 50  0000 C CNN
	1    8400 2450
	1    0    0    -1  
$EndComp
$Comp
L D D1:8
U 1 1 57EC862A
P 8400 2750
F 0 "D1:8" H 8400 2650 50  0000 C CNN
F 1 "D" H 8400 2874 50  0000 C CNN
F 2 "Diodes_SMD:D-Pak_TO252AA" H 8400 2750 50  0001 C CNN
F 3 "" H 8400 2750 50  0000 C CNN
	1    8400 2750
	1    0    0    -1  
$EndComp
$Comp
L SW_PUSH SW2:8
U 1 1 57EC8634
P 8400 1650
F 0 "SW2:8" H 8550 1750 50  0000 C CNN
F 1 "SW_MATIAS" H 8400 1550 50  0000 C CNN
F 2 "mycomponents:SW_Matias_Quiet_LED_Hole" H 8400 1650 50  0001 C CNN
F 3 "" H 8400 1650 50  0000 C CNN
	1    8400 1650
	1    0    0    -1  
$EndComp
$Comp
L D D2:8
U 1 1 57EC863A
P 8400 1950
F 0 "D2:8" H 8400 1850 50  0000 C CNN
F 1 "D" H 8400 2074 50  0000 C CNN
F 2 "Diodes_SMD:D-Pak_TO252AA" H 8400 1950 50  0001 C CNN
F 3 "" H 8400 1950 50  0000 C CNN
	1    8400 1950
	1    0    0    -1  
$EndComp
$Comp
L SW_PUSH SW3:8
U 1 1 57EC8644
P 8400 900
F 0 "SW3:8" H 8550 1000 50  0000 C CNN
F 1 "SW_MATIAS" H 8400 800 50  0000 C CNN
F 2 "mycomponents:SW_Matias_Quiet_LED_Hole" H 8400 900 50  0001 C CNN
F 3 "" H 8400 900 50  0000 C CNN
	1    8400 900 
	1    0    0    -1  
$EndComp
$Comp
L D D3:8
U 1 1 57EC864A
P 8400 1200
F 0 "D3:8" H 8400 1100 50  0000 C CNN
F 1 "D" H 8400 1324 50  0000 C CNN
F 2 "Diodes_SMD:D-Pak_TO252AA" H 8400 1200 50  0001 C CNN
F 3 "" H 8400 1200 50  0000 C CNN
	1    8400 1200
	1    0    0    -1  
$EndComp
$Comp
L SW_PUSH SW0:9
U 1 1 57EC8654
P 9200 3200
F 0 "SW0:9" H 9350 3300 50  0000 C CNN
F 1 "SW_MATIAS" H 9200 3100 50  0000 C CNN
F 2 "mycomponents:SW_Matias_Quiet_LED_Hole" H 9200 3200 50  0001 C CNN
F 3 "" H 9200 3200 50  0000 C CNN
	1    9200 3200
	1    0    0    -1  
$EndComp
$Comp
L D D0:9
U 1 1 57EC865A
P 9200 3500
F 0 "D0:9" H 9200 3400 50  0000 C CNN
F 1 "D" H 9200 3624 50  0000 C CNN
F 2 "Diodes_SMD:D-Pak_TO252AA" H 9200 3500 50  0001 C CNN
F 3 "" H 9200 3500 50  0000 C CNN
	1    9200 3500
	1    0    0    -1  
$EndComp
$Comp
L SW_PUSH SW1:9
U 1 1 57EC8664
P 9200 2450
F 0 "SW1:9" H 9350 2550 50  0000 C CNN
F 1 "SW_MATIAS" H 9200 2350 50  0000 C CNN
F 2 "mycomponents:SW_Matias_Quiet_LED_Hole" H 9200 2450 50  0001 C CNN
F 3 "" H 9200 2450 50  0000 C CNN
	1    9200 2450
	1    0    0    -1  
$EndComp
$Comp
L D D1:9
U 1 1 57EC866A
P 9200 2750
F 0 "D1:9" H 9200 2650 50  0000 C CNN
F 1 "D" H 9200 2874 50  0000 C CNN
F 2 "Diodes_SMD:D-Pak_TO252AA" H 9200 2750 50  0001 C CNN
F 3 "" H 9200 2750 50  0000 C CNN
	1    9200 2750
	1    0    0    -1  
$EndComp
$Comp
L SW_PUSH SW2:9
U 1 1 57EC8674
P 9200 1650
F 0 "SW2:9" H 9350 1750 50  0000 C CNN
F 1 "SW_MATIAS" H 9200 1550 50  0000 C CNN
F 2 "mycomponents:SW_Matias_Quiet_LED_Hole" H 9200 1650 50  0001 C CNN
F 3 "" H 9200 1650 50  0000 C CNN
	1    9200 1650
	1    0    0    -1  
$EndComp
$Comp
L D D2:9
U 1 1 57EC867A
P 9200 1950
F 0 "D2:9" H 9200 1850 50  0000 C CNN
F 1 "D" H 9200 2074 50  0000 C CNN
F 2 "Diodes_SMD:D-Pak_TO252AA" H 9200 1950 50  0001 C CNN
F 3 "" H 9200 1950 50  0000 C CNN
	1    9200 1950
	1    0    0    -1  
$EndComp
$Comp
L SW_PUSH SW3:9
U 1 1 57EC8684
P 9200 900
F 0 "SW3:9" H 9350 1000 50  0000 C CNN
F 1 "SW_MATIAS" H 9200 800 50  0000 C CNN
F 2 "mycomponents:SW_Matias_Quiet_LED_Hole" H 9200 900 50  0001 C CNN
F 3 "" H 9200 900 50  0000 C CNN
	1    9200 900 
	1    0    0    -1  
$EndComp
$Comp
L D D3:9
U 1 1 57EC868A
P 9200 1200
F 0 "D3:9" H 9200 1100 50  0000 C CNN
F 1 "D" H 9200 1324 50  0000 C CNN
F 2 "Diodes_SMD:D-Pak_TO252AA" H 9200 1200 50  0001 C CNN
F 3 "" H 9200 1200 50  0000 C CNN
	1    9200 1200
	1    0    0    -1  
$EndComp
$Comp
L D D0:10
U 1 1 57EC8C3A
P 10000 3500
F 0 "D0:10" H 10000 3400 50  0000 C CNN
F 1 "D" H 10000 3624 50  0000 C CNN
F 2 "Diodes_SMD:D-Pak_TO252AA" H 10000 3500 50  0001 C CNN
F 3 "" H 10000 3500 50  0000 C CNN
	1    10000 3500
	1    0    0    -1  
$EndComp
$Comp
L SW_PUSH SW1:10
U 1 1 57EC8C44
P 10000 2450
F 0 "SW1:10" H 10150 2550 50  0000 C CNN
F 1 "SW_MATIAS" H 10000 2350 50  0000 C CNN
F 2 "mycomponents:SW_Matias_Quiet_LED_Hole" H 10000 2450 50  0001 C CNN
F 3 "" H 10000 2450 50  0000 C CNN
	1    10000 2450
	1    0    0    -1  
$EndComp
$Comp
L D D1:10
U 1 1 57EC8C4A
P 10000 2750
F 0 "D1:10" H 10000 2650 50  0000 C CNN
F 1 "D" H 10000 2874 50  0000 C CNN
F 2 "Diodes_SMD:D-Pak_TO252AA" H 10000 2750 50  0001 C CNN
F 3 "" H 10000 2750 50  0000 C CNN
	1    10000 2750
	1    0    0    -1  
$EndComp
$Comp
L SW_PUSH SW2:10
U 1 1 57EC8C54
P 10000 1650
F 0 "SW2:10" H 10150 1750 50  0000 C CNN
F 1 "SW_MATIAS" H 10000 1550 50  0000 C CNN
F 2 "mycomponents:SW_Matias_Quiet_LED_Hole" H 10000 1650 50  0001 C CNN
F 3 "" H 10000 1650 50  0000 C CNN
	1    10000 1650
	1    0    0    -1  
$EndComp
$Comp
L D D2:10
U 1 1 57EC8C5A
P 10000 1950
F 0 "D2:10" H 10000 1850 50  0000 C CNN
F 1 "D" H 10000 2074 50  0000 C CNN
F 2 "Diodes_SMD:D-Pak_TO252AA" H 10000 1950 50  0001 C CNN
F 3 "" H 10000 1950 50  0000 C CNN
	1    10000 1950
	1    0    0    -1  
$EndComp
$Comp
L SW_PUSH SW3:10
U 1 1 57EC8C64
P 10000 900
F 0 "SW3:10" H 10150 1000 50  0000 C CNN
F 1 "SW_MATIAS" H 10000 800 50  0000 C CNN
F 2 "mycomponents:SW_Matias_Quiet_LED_Hole" H 10000 900 50  0001 C CNN
F 3 "" H 10000 900 50  0000 C CNN
	1    10000 900 
	1    0    0    -1  
$EndComp
$Comp
L D D3:10
U 1 1 57EC8C6A
P 10000 1200
F 0 "D3:10" H 10000 1100 50  0000 C CNN
F 1 "D" H 10000 1324 50  0000 C CNN
F 2 "Diodes_SMD:D-Pak_TO252AA" H 10000 1200 50  0001 C CNN
F 3 "" H 10000 1200 50  0000 C CNN
	1    10000 1200
	1    0    0    -1  
$EndComp
$Comp
L SW_PUSH SW0:11
U 1 1 57EC8C74
P 10800 3200
F 0 "SW0:11" H 10950 3300 50  0000 C CNN
F 1 "SW_MATIAS" H 10800 3100 50  0000 C CNN
F 2 "mycomponents:SW_Matias_Quiet_LED_Hole" H 10800 3200 50  0001 C CNN
F 3 "" H 10800 3200 50  0000 C CNN
	1    10800 3200
	1    0    0    -1  
$EndComp
$Comp
L D D0:11
U 1 1 57EC8C7A
P 10800 3500
F 0 "D0:11" H 10800 3400 50  0000 C CNN
F 1 "D" H 10800 3624 50  0000 C CNN
F 2 "Diodes_SMD:D-Pak_TO252AA" H 10800 3500 50  0001 C CNN
F 3 "" H 10800 3500 50  0000 C CNN
	1    10800 3500
	1    0    0    -1  
$EndComp
$Comp
L SW_PUSH SW1:11
U 1 1 57EC8C84
P 10800 2450
F 0 "SW1:11" H 10950 2550 50  0000 C CNN
F 1 "SW_MATIAS" H 10800 2350 50  0000 C CNN
F 2 "mycomponents:SW_Matias_Quiet_LED_Hole" H 10800 2450 50  0001 C CNN
F 3 "" H 10800 2450 50  0000 C CNN
	1    10800 2450
	1    0    0    -1  
$EndComp
$Comp
L D D1:11
U 1 1 57EC8C8A
P 10800 2750
F 0 "D1:11" H 10800 2650 50  0000 C CNN
F 1 "D" H 10800 2874 50  0000 C CNN
F 2 "Diodes_SMD:D-Pak_TO252AA" H 10800 2750 50  0001 C CNN
F 3 "" H 10800 2750 50  0000 C CNN
	1    10800 2750
	1    0    0    -1  
$EndComp
$Comp
L SW_PUSH SW2:11
U 1 1 57EC8C94
P 10800 1650
F 0 "SW2:11" H 10950 1750 50  0000 C CNN
F 1 "SW_MATIAS" H 10800 1550 50  0000 C CNN
F 2 "mycomponents:SW_Matias_Quiet_LED_Hole" H 10800 1650 50  0001 C CNN
F 3 "" H 10800 1650 50  0000 C CNN
	1    10800 1650
	1    0    0    -1  
$EndComp
$Comp
L D D2:11
U 1 1 57EC8C9A
P 10800 1950
F 0 "D2:11" H 10800 1850 50  0000 C CNN
F 1 "D" H 10800 2074 50  0000 C CNN
F 2 "Diodes_SMD:D-Pak_TO252AA" H 10800 1950 50  0001 C CNN
F 3 "" H 10800 1950 50  0000 C CNN
	1    10800 1950
	1    0    0    -1  
$EndComp
$Comp
L SW_PUSH SW3:11
U 1 1 57EC8CA4
P 10800 900
F 0 "SW3:11" H 10950 1000 50  0000 C CNN
F 1 "SW_MATIAS" H 10800 800 50  0000 C CNN
F 2 "mycomponents:SW_Matias_Quiet_LED_Hole" H 10800 900 50  0001 C CNN
F 3 "" H 10800 900 50  0000 C CNN
	1    10800 900 
	1    0    0    -1  
$EndComp
$Comp
L D D3:11
U 1 1 57EC8CAA
P 10800 1200
F 0 "D3:11" H 10800 1100 50  0000 C CNN
F 1 "D" H 10800 1324 50  0000 C CNN
F 2 "Diodes_SMD:D-Pak_TO252AA" H 10800 1200 50  0001 C CNN
F 3 "" H 10800 1200 50  0000 C CNN
	1    10800 1200
	1    0    0    -1  
$EndComp
$Comp
L SW_PUSH SW0:10
U 1 1 57EC8C34
P 10000 3200
F 0 "SW0:10" H 10150 3300 50  0000 C CNN
F 1 "SW_MATIAS" H 10000 3100 50  0000 C CNN
F 2 "mycomponents:SW_Matias_Quiet_LED_Hole" H 10000 3200 50  0001 C CNN
F 3 "" H 10000 3200 50  0000 C CNN
	1    10000 3200
	1    0    0    -1  
$EndComp
$Comp
L SW_PUSH SW0:0
U 1 1 57EDFBEE
P 1400 3200
F 0 "SW0:0" H 1550 3300 50  0000 C CNN
F 1 "SW_MATIAS" H 1400 3100 50  0000 C CNN
F 2 "mycomponents:SW_Matias_Quiet_LED_Hole" H 1400 3200 50  0001 C CNN
F 3 "" H 1400 3200 50  0000 C CNN
	1    1400 3200
	1    0    0    -1  
$EndComp
$Comp
L D D0:0
U 1 1 57EDFBF4
P 1400 3500
F 0 "D0:0" H 1400 3400 50  0000 C CNN
F 1 "D" H 1400 3624 50  0000 C CNN
F 2 "Diodes_SMD:D-Pak_TO252AA" H 1400 3500 50  0001 C CNN
F 3 "" H 1400 3500 50  0000 C CNN
	1    1400 3500
	1    0    0    -1  
$EndComp
$Comp
L SW_PUSH SW1:0
U 1 1 57EDFBFA
P 1400 2450
F 0 "SW1:0" H 1550 2550 50  0000 C CNN
F 1 "SW_MATIAS" H 1400 2350 50  0000 C CNN
F 2 "mycomponents:SW_Matias_Quiet_LED_Hole" H 1400 2450 50  0001 C CNN
F 3 "" H 1400 2450 50  0000 C CNN
	1    1400 2450
	1    0    0    -1  
$EndComp
$Comp
L D D1:0
U 1 1 57EDFC00
P 1400 2750
F 0 "D1:0" H 1400 2650 50  0000 C CNN
F 1 "D" H 1400 2874 50  0000 C CNN
F 2 "Diodes_SMD:D-Pak_TO252AA" H 1400 2750 50  0001 C CNN
F 3 "" H 1400 2750 50  0000 C CNN
	1    1400 2750
	1    0    0    -1  
$EndComp
$Comp
L SW_PUSH SW2:0
U 1 1 57EDFC06
P 1400 1650
F 0 "SW2:0" H 1550 1750 50  0000 C CNN
F 1 "SW_MATIAS" H 1400 1550 50  0000 C CNN
F 2 "mycomponents:SW_Matias_Quiet_LED_Hole" H 1400 1650 50  0001 C CNN
F 3 "" H 1400 1650 50  0000 C CNN
	1    1400 1650
	1    0    0    -1  
$EndComp
$Comp
L D D2:0
U 1 1 57EDFC0C
P 1400 1950
F 0 "D2:0" H 1400 1850 50  0000 C CNN
F 1 "D" H 1400 2074 50  0000 C CNN
F 2 "Diodes_SMD:D-Pak_TO252AA" H 1400 1950 50  0001 C CNN
F 3 "" H 1400 1950 50  0000 C CNN
	1    1400 1950
	1    0    0    -1  
$EndComp
$Comp
L SW_PUSH SW3:0
U 1 1 57EDFC12
P 1400 900
F 0 "SW3:0" H 1550 1000 50  0000 C CNN
F 1 "SW_MATIAS" H 1400 800 50  0000 C CNN
F 2 "mycomponents:SW_Matias_Quiet_LED_Hole" H 1400 900 50  0001 C CNN
F 3 "" H 1400 900 50  0000 C CNN
	1    1400 900 
	1    0    0    -1  
$EndComp
$Comp
L D D3:0
U 1 1 57EDFC18
P 1400 1200
F 0 "D3:0" H 1400 1100 50  0000 C CNN
F 1 "D" H 1400 1324 50  0000 C CNN
F 2 "Diodes_SMD:D-Pak_TO252AA" H 1400 1200 50  0001 C CNN
F 3 "" H 1400 1200 50  0000 C CNN
	1    1400 1200
	1    0    0    -1  
$EndComp
$Comp
L SW_PUSH SW0:1
U 1 1 57EDFC1E
P 2200 3200
F 0 "SW0:1" H 2350 3300 50  0000 C CNN
F 1 "SW_MATIAS" H 2200 3100 50  0000 C CNN
F 2 "mycomponents:SW_Matias_Quiet_LED_Hole" H 2200 3200 50  0001 C CNN
F 3 "" H 2200 3200 50  0000 C CNN
	1    2200 3200
	1    0    0    -1  
$EndComp
$Comp
L D D0:1
U 1 1 57EDFC24
P 2200 3500
F 0 "D0:1" H 2200 3400 50  0000 C CNN
F 1 "D" H 2200 3624 50  0000 C CNN
F 2 "Diodes_SMD:D-Pak_TO252AA" H 2200 3500 50  0001 C CNN
F 3 "" H 2200 3500 50  0000 C CNN
	1    2200 3500
	1    0    0    -1  
$EndComp
$Comp
L SW_PUSH SW1:1
U 1 1 57EDFC2A
P 2200 2450
F 0 "SW1:1" H 2350 2550 50  0000 C CNN
F 1 "SW_MATIAS" H 2200 2350 50  0000 C CNN
F 2 "mycomponents:SW_Matias_Quiet_LED_Hole" H 2200 2450 50  0001 C CNN
F 3 "" H 2200 2450 50  0000 C CNN
	1    2200 2450
	1    0    0    -1  
$EndComp
$Comp
L D D1:1
U 1 1 57EDFC30
P 2200 2750
F 0 "D1:1" H 2200 2650 50  0000 C CNN
F 1 "D" H 2200 2874 50  0000 C CNN
F 2 "Diodes_SMD:D-Pak_TO252AA" H 2200 2750 50  0001 C CNN
F 3 "" H 2200 2750 50  0000 C CNN
	1    2200 2750
	1    0    0    -1  
$EndComp
$Comp
L SW_PUSH SW2:1
U 1 1 57EDFC36
P 2200 1650
F 0 "SW2:1" H 2350 1750 50  0000 C CNN
F 1 "SW_MATIAS" H 2200 1550 50  0000 C CNN
F 2 "mycomponents:SW_Matias_Quiet_LED_Hole" H 2200 1650 50  0001 C CNN
F 3 "" H 2200 1650 50  0000 C CNN
	1    2200 1650
	1    0    0    -1  
$EndComp
$Comp
L D D2:1
U 1 1 57EDFC3C
P 2200 1950
F 0 "D2:1" H 2200 1850 50  0000 C CNN
F 1 "D" H 2200 2074 50  0000 C CNN
F 2 "Diodes_SMD:D-Pak_TO252AA" H 2200 1950 50  0001 C CNN
F 3 "" H 2200 1950 50  0000 C CNN
	1    2200 1950
	1    0    0    -1  
$EndComp
$Comp
L SW_PUSH SW3:1
U 1 1 57EDFC42
P 2200 900
F 0 "SW3:1" H 2350 1000 50  0000 C CNN
F 1 "SW_MATIAS" H 2200 800 50  0000 C CNN
F 2 "mycomponents:SW_Matias_Quiet_LED_Hole" H 2200 900 50  0001 C CNN
F 3 "" H 2200 900 50  0000 C CNN
	1    2200 900 
	1    0    0    -1  
$EndComp
$Comp
L D D3:1
U 1 1 57EDFC48
P 2200 1200
F 0 "D3:1" H 2200 1100 50  0000 C CNN
F 1 "D" H 2200 1324 50  0000 C CNN
F 2 "Diodes_SMD:D-Pak_TO252AA" H 2200 1200 50  0001 C CNN
F 3 "" H 2200 1200 50  0000 C CNN
	1    2200 1200
	1    0    0    -1  
$EndComp
$Comp
L SW_PUSH SW0:2
U 1 1 57EDFC4E
P 3000 3200
F 0 "SW0:2" H 3150 3300 50  0000 C CNN
F 1 "SW_MATIAS" H 3000 3100 50  0000 C CNN
F 2 "mycomponents:SW_Matias_Quiet_LED_Hole" H 3000 3200 50  0001 C CNN
F 3 "" H 3000 3200 50  0000 C CNN
	1    3000 3200
	1    0    0    -1  
$EndComp
$Comp
L D D0:2
U 1 1 57EDFC54
P 3000 3500
F 0 "D0:2" H 3000 3400 50  0000 C CNN
F 1 "D" H 3000 3624 50  0000 C CNN
F 2 "Diodes_SMD:D-Pak_TO252AA" H 3000 3500 50  0001 C CNN
F 3 "" H 3000 3500 50  0000 C CNN
	1    3000 3500
	1    0    0    -1  
$EndComp
$Comp
L SW_PUSH SW1:2
U 1 1 57EDFC5A
P 3000 2450
F 0 "SW1:2" H 3150 2550 50  0000 C CNN
F 1 "SW_MATIAS" H 3000 2350 50  0000 C CNN
F 2 "mycomponents:SW_Matias_Quiet_LED_Hole" H 3000 2450 50  0001 C CNN
F 3 "" H 3000 2450 50  0000 C CNN
	1    3000 2450
	1    0    0    -1  
$EndComp
$Comp
L D D1:2
U 1 1 57EDFC60
P 3000 2750
F 0 "D1:2" H 3000 2650 50  0000 C CNN
F 1 "D" H 3000 2874 50  0000 C CNN
F 2 "Diodes_SMD:D-Pak_TO252AA" H 3000 2750 50  0001 C CNN
F 3 "" H 3000 2750 50  0000 C CNN
	1    3000 2750
	1    0    0    -1  
$EndComp
$Comp
L SW_PUSH SW2:2
U 1 1 57EDFC66
P 3000 1650
F 0 "SW2:2" H 3150 1750 50  0000 C CNN
F 1 "SW_MATIAS" H 3000 1550 50  0000 C CNN
F 2 "mycomponents:SW_Matias_Quiet_LED_Hole" H 3000 1650 50  0001 C CNN
F 3 "" H 3000 1650 50  0000 C CNN
	1    3000 1650
	1    0    0    -1  
$EndComp
$Comp
L D D2:2
U 1 1 57EDFC6C
P 3000 1950
F 0 "D2:2" H 3000 1850 50  0000 C CNN
F 1 "D" H 3000 2074 50  0000 C CNN
F 2 "Diodes_SMD:D-Pak_TO252AA" H 3000 1950 50  0001 C CNN
F 3 "" H 3000 1950 50  0000 C CNN
	1    3000 1950
	1    0    0    -1  
$EndComp
$Comp
L SW_PUSH SW3:2
U 1 1 57EDFC72
P 3000 900
F 0 "SW3:2" H 3150 1000 50  0000 C CNN
F 1 "SW_MATIAS" H 3000 800 50  0000 C CNN
F 2 "mycomponents:SW_Matias_Quiet_LED_Hole" H 3000 900 50  0001 C CNN
F 3 "" H 3000 900 50  0000 C CNN
	1    3000 900 
	1    0    0    -1  
$EndComp
$Comp
L D D3:2
U 1 1 57EDFC78
P 3000 1200
F 0 "D3:2" H 3000 1100 50  0000 C CNN
F 1 "D" H 3000 1324 50  0000 C CNN
F 2 "Diodes_SMD:D-Pak_TO252AA" H 3000 1200 50  0001 C CNN
F 3 "" H 3000 1200 50  0000 C CNN
	1    3000 1200
	1    0    0    -1  
$EndComp
$Comp
L SW_PUSH SW0:3
U 1 1 57EDFC7E
P 3800 3200
F 0 "SW0:3" H 3950 3300 50  0000 C CNN
F 1 "SW_MATIAS" H 3800 3100 50  0000 C CNN
F 2 "mycomponents:SW_Matias_Quiet_LED_Hole" H 3800 3200 50  0001 C CNN
F 3 "" H 3800 3200 50  0000 C CNN
	1    3800 3200
	1    0    0    -1  
$EndComp
$Comp
L D D0:3
U 1 1 57EDFC84
P 3800 3500
F 0 "D0:3" H 3800 3400 50  0000 C CNN
F 1 "D" H 3800 3624 50  0000 C CNN
F 2 "Diodes_SMD:D-Pak_TO252AA" H 3800 3500 50  0001 C CNN
F 3 "" H 3800 3500 50  0000 C CNN
	1    3800 3500
	1    0    0    -1  
$EndComp
$Comp
L SW_PUSH SW1:3
U 1 1 57EDFC8A
P 3800 2450
F 0 "SW1:3" H 3950 2550 50  0000 C CNN
F 1 "SW_MATIAS" H 3800 2350 50  0000 C CNN
F 2 "mycomponents:SW_Matias_Quiet_LED_Hole" H 3800 2450 50  0001 C CNN
F 3 "" H 3800 2450 50  0000 C CNN
	1    3800 2450
	1    0    0    -1  
$EndComp
$Comp
L D D1:3
U 1 1 57EDFC90
P 3800 2750
F 0 "D1:3" H 3800 2650 50  0000 C CNN
F 1 "D" H 3800 2874 50  0000 C CNN
F 2 "Diodes_SMD:D-Pak_TO252AA" H 3800 2750 50  0001 C CNN
F 3 "" H 3800 2750 50  0000 C CNN
	1    3800 2750
	1    0    0    -1  
$EndComp
$Comp
L SW_PUSH SW2:3
U 1 1 57EDFC96
P 3800 1650
F 0 "SW2:3" H 3950 1750 50  0000 C CNN
F 1 "SW_MATIAS" H 3800 1550 50  0000 C CNN
F 2 "mycomponents:SW_Matias_Quiet_LED_Hole" H 3800 1650 50  0001 C CNN
F 3 "" H 3800 1650 50  0000 C CNN
	1    3800 1650
	1    0    0    -1  
$EndComp
$Comp
L D D2:3
U 1 1 57EDFC9C
P 3800 1950
F 0 "D2:3" H 3800 1850 50  0000 C CNN
F 1 "D" H 3800 2074 50  0000 C CNN
F 2 "Diodes_SMD:D-Pak_TO252AA" H 3800 1950 50  0001 C CNN
F 3 "" H 3800 1950 50  0000 C CNN
	1    3800 1950
	1    0    0    -1  
$EndComp
$Comp
L SW_PUSH SW3:3
U 1 1 57EDFCA2
P 3800 900
F 0 "SW3:3" H 3950 1000 50  0000 C CNN
F 1 "SW_MATIAS" H 3800 800 50  0000 C CNN
F 2 "mycomponents:SW_Matias_Quiet_LED_Hole" H 3800 900 50  0001 C CNN
F 3 "" H 3800 900 50  0000 C CNN
	1    3800 900 
	1    0    0    -1  
$EndComp
$Comp
L D D3:3
U 1 1 57EDFCA8
P 3800 1200
F 0 "D3:3" H 3800 1100 50  0000 C CNN
F 1 "D" H 3800 1324 50  0000 C CNN
F 2 "Diodes_SMD:D-Pak_TO252AA" H 3800 1200 50  0001 C CNN
F 3 "" H 3800 1200 50  0000 C CNN
	1    3800 1200
	1    0    0    -1  
$EndComp
$Comp
L D D0:4
U 1 1 57EDFCAE
P 4600 3500
F 0 "D0:4" H 4600 3400 50  0000 C CNN
F 1 "D" H 4600 3624 50  0000 C CNN
F 2 "Diodes_SMD:D-Pak_TO252AA" H 4600 3500 50  0001 C CNN
F 3 "" H 4600 3500 50  0000 C CNN
	1    4600 3500
	1    0    0    -1  
$EndComp
$Comp
L SW_PUSH SW1:4
U 1 1 57EDFCB4
P 4600 2450
F 0 "SW1:4" H 4750 2550 50  0000 C CNN
F 1 "SW_MATIAS" H 4600 2350 50  0000 C CNN
F 2 "mycomponents:SW_Matias_Quiet_LED_Hole" H 4600 2450 50  0001 C CNN
F 3 "" H 4600 2450 50  0000 C CNN
	1    4600 2450
	1    0    0    -1  
$EndComp
$Comp
L D D1:4
U 1 1 57EDFCBA
P 4600 2750
F 0 "D1:4" H 4600 2650 50  0000 C CNN
F 1 "D" H 4600 2874 50  0000 C CNN
F 2 "Diodes_SMD:D-Pak_TO252AA" H 4600 2750 50  0001 C CNN
F 3 "" H 4600 2750 50  0000 C CNN
	1    4600 2750
	1    0    0    -1  
$EndComp
$Comp
L SW_PUSH SW2:4
U 1 1 57EDFCC0
P 4600 1650
F 0 "SW2:4" H 4750 1750 50  0000 C CNN
F 1 "SW_MATIAS" H 4600 1550 50  0000 C CNN
F 2 "mycomponents:SW_Matias_Quiet_LED_Hole" H 4600 1650 50  0001 C CNN
F 3 "" H 4600 1650 50  0000 C CNN
	1    4600 1650
	1    0    0    -1  
$EndComp
$Comp
L D D2:4
U 1 1 57EDFCC6
P 4600 1950
F 0 "D2:4" H 4600 1850 50  0000 C CNN
F 1 "D" H 4600 2074 50  0000 C CNN
F 2 "Diodes_SMD:D-Pak_TO252AA" H 4600 1950 50  0001 C CNN
F 3 "" H 4600 1950 50  0000 C CNN
	1    4600 1950
	1    0    0    -1  
$EndComp
$Comp
L SW_PUSH SW3:4
U 1 1 57EDFCCC
P 4600 900
F 0 "SW3:4" H 4750 1000 50  0000 C CNN
F 1 "SW_MATIAS" H 4600 800 50  0000 C CNN
F 2 "mycomponents:SW_Matias_Quiet_LED_Hole" H 4600 900 50  0001 C CNN
F 3 "" H 4600 900 50  0000 C CNN
	1    4600 900 
	1    0    0    -1  
$EndComp
$Comp
L D D3:4
U 1 1 57EDFCD2
P 4600 1200
F 0 "D3:4" H 4600 1100 50  0000 C CNN
F 1 "D" H 4600 1324 50  0000 C CNN
F 2 "Diodes_SMD:D-Pak_TO252AA" H 4600 1200 50  0001 C CNN
F 3 "" H 4600 1200 50  0000 C CNN
	1    4600 1200
	1    0    0    -1  
$EndComp
$Comp
L SW_PUSH SW0:5
U 1 1 57EDFCD8
P 5400 3200
F 0 "SW0:5" H 5550 3300 50  0000 C CNN
F 1 "SW_MATIAS" H 5400 3100 50  0000 C CNN
F 2 "mycomponents:SW_Matias_Quiet_LED_Hole" H 5400 3200 50  0001 C CNN
F 3 "" H 5400 3200 50  0000 C CNN
	1    5400 3200
	1    0    0    -1  
$EndComp
$Comp
L D D0:5
U 1 1 57EDFCDE
P 5400 3500
F 0 "D0:5" H 5400 3400 50  0000 C CNN
F 1 "D" H 5400 3624 50  0000 C CNN
F 2 "Diodes_SMD:D-Pak_TO252AA" H 5400 3500 50  0001 C CNN
F 3 "" H 5400 3500 50  0000 C CNN
	1    5400 3500
	1    0    0    -1  
$EndComp
$Comp
L SW_PUSH SW1:5
U 1 1 57EDFCE4
P 5400 2450
F 0 "SW1:5" H 5550 2550 50  0000 C CNN
F 1 "SW_MATIAS" H 5400 2350 50  0000 C CNN
F 2 "mycomponents:SW_Matias_Quiet_LED_Hole" H 5400 2450 50  0001 C CNN
F 3 "" H 5400 2450 50  0000 C CNN
	1    5400 2450
	1    0    0    -1  
$EndComp
$Comp
L D D1:5
U 1 1 57EDFCEA
P 5400 2750
F 0 "D1:5" H 5400 2650 50  0000 C CNN
F 1 "D" H 5400 2874 50  0000 C CNN
F 2 "Diodes_SMD:D-Pak_TO252AA" H 5400 2750 50  0001 C CNN
F 3 "" H 5400 2750 50  0000 C CNN
	1    5400 2750
	1    0    0    -1  
$EndComp
$Comp
L SW_PUSH SW2:5
U 1 1 57EDFCF0
P 5400 1650
F 0 "SW2:5" H 5550 1750 50  0000 C CNN
F 1 "SW_MATIAS" H 5400 1550 50  0000 C CNN
F 2 "mycomponents:SW_Matias_Quiet_LED_Hole" H 5400 1650 50  0001 C CNN
F 3 "" H 5400 1650 50  0000 C CNN
	1    5400 1650
	1    0    0    -1  
$EndComp
$Comp
L D D2:5
U 1 1 57EDFCF6
P 5400 1950
F 0 "D2:5" H 5400 1850 50  0000 C CNN
F 1 "D" H 5400 2074 50  0000 C CNN
F 2 "Diodes_SMD:D-Pak_TO252AA" H 5400 1950 50  0001 C CNN
F 3 "" H 5400 1950 50  0000 C CNN
	1    5400 1950
	1    0    0    -1  
$EndComp
$Comp
L SW_PUSH SW3:5
U 1 1 57EDFCFC
P 5400 900
F 0 "SW3:5" H 5550 1000 50  0000 C CNN
F 1 "SW_MATIAS" H 5400 800 50  0000 C CNN
F 2 "mycomponents:SW_Matias_Quiet_LED_Hole" H 5400 900 50  0001 C CNN
F 3 "" H 5400 900 50  0000 C CNN
	1    5400 900 
	1    0    0    -1  
$EndComp
$Comp
L D D3:5
U 1 1 57EDFD02
P 5400 1200
F 0 "D3:5" H 5400 1100 50  0000 C CNN
F 1 "D" H 5400 1324 50  0000 C CNN
F 2 "Diodes_SMD:D-Pak_TO252AA" H 5400 1200 50  0001 C CNN
F 3 "" H 5400 1200 50  0000 C CNN
	1    5400 1200
	1    0    0    -1  
$EndComp
$Comp
L SW_PUSH SW0:4
U 1 1 57EDFD74
P 4600 3200
F 0 "SW0:4" H 4750 3300 50  0000 C CNN
F 1 "SW_MATIAS" H 4600 3100 50  0000 C CNN
F 2 "mycomponents:SW_Matias_Quiet_LED_Hole" H 4600 3200 50  0001 C CNN
F 3 "" H 4600 3200 50  0000 C CNN
	1    4600 3200
	1    0    0    -1  
$EndComp
Text Label 1000 4100 1    60   ~ 0
COL0
Text Label 1800 4100 1    60   ~ 0
COL1
Text Label 2600 4100 1    60   ~ 0
COL2
Text Label 3400 4100 1    60   ~ 0
COL3
Text Label 4200 4100 1    60   ~ 0
COL4
Text Label 5000 4100 1    60   ~ 0
COL5
Text Label 6400 4100 1    60   ~ 0
COL6
Text Label 7200 4100 1    60   ~ 0
COL7
Text Label 8000 4100 1    60   ~ 0
COL8
Text Label 8800 4100 1    60   ~ 0
COL9
Text Label 9600 4100 1    60   ~ 0
COL10
Text Label 10400 4100 1    60   ~ 0
COL11
Text Label 5600 5350 2    60   ~ 0
ROW0R
Text Label 5600 5250 2    60   ~ 0
ROW1R
Text Label 5600 5150 2    60   ~ 0
ROW2R
Text Label 5600 5050 2    60   ~ 0
ROW3R
Text Label 3700 4850 0    60   ~ 0
COL6
Text Label 3700 4950 0    60   ~ 0
COL7
Text Label 3700 5050 0    60   ~ 0
COL8
Text Label 3700 5150 0    60   ~ 0
COL9
Text Label 3700 5550 0    60   ~ 0
COL10
Text Label 3700 5650 0    60   ~ 0
COL11
Text Label 5500 650  0    60   ~ 0
ROW3M
Text Label 5500 1400 0    60   ~ 0
ROW2M
Text Label 5450 2200 0    60   ~ 0
ROW1M
Text Label 5500 2950 0    60   ~ 0
ROW0M
$Comp
L R R1
U 1 1 57F408BC
P 7000 5750
F 0 "R1" H 7070 5796 50  0000 L CNN
F 1 "R" H 7070 5705 50  0000 L CNN
F 2 "Resistors_ThroughHole:Resistor_Horizontal_RM7mm" V 6930 5750 50  0001 C CNN
F 3 "" H 7000 5750 50  0000 C CNN
	1    7000 5750
	1    0    0    -1  
$EndComp
$Comp
L R R2
U 1 1 57F4321C
P 7500 6350
F 0 "R2" H 7570 6396 50  0000 L CNN
F 1 "R" H 7570 6305 50  0000 L CNN
F 2 "Resistors_ThroughHole:Resistor_Horizontal_RM7mm" V 7430 6350 50  0001 C CNN
F 3 "" H 7500 6350 50  0000 C CNN
	1    7500 6350
	1    0    0    -1  
$EndComp
$Comp
L R R3
U 1 1 57F43342
P 7750 6650
F 0 "R3" H 7820 6696 50  0000 L CNN
F 1 "R" H 7820 6605 50  0000 L CNN
F 2 "Resistors_ThroughHole:Resistor_Horizontal_RM7mm" V 7680 6650 50  0001 C CNN
F 3 "" H 7750 6650 50  0000 C CNN
	1    7750 6650
	1    0    0    -1  
$EndComp
Text Label 8100 6150 0    60   ~ 0
TP1
Text Label 8100 6800 0    60   ~ 0
TP2
Text Label 6100 2950 0    60   ~ 0
ROW0R
Text Label 6100 2200 0    60   ~ 0
ROW1R
Text Label 6100 1400 0    60   ~ 0
ROW2R
Text Label 6100 650  0    60   ~ 0
ROW3R
Text Label 1200 5550 0    60   ~ 0
ROW1M
Text Label 1200 5450 0    60   ~ 0
ROW2M
Text Label 1200 5350 0    60   ~ 0
ROW3M
Text Label 2700 5650 0    60   ~ 0
COL1
Text Label 2700 5550 0    60   ~ 0
COL2
Text Label 2700 5450 0    60   ~ 0
COL3
Text Label 2700 5350 0    60   ~ 0
COL4
Text Label 2700 5250 0    60   ~ 0
COL5
Text Label 2700 5750 0    60   ~ 0
COL0
Text Label 1200 5650 0    60   ~ 0
ROW0M
NoConn ~ 1450 5050
NoConn ~ 1550 5150
NoConn ~ 1550 5250
NoConn ~ 1550 5750
NoConn ~ 1550 5850
NoConn ~ 2550 4950
NoConn ~ 2550 5050
NoConn ~ 2550 5150
NoConn ~ 2550 5850
NoConn ~ 2550 5950
NoConn ~ 2550 6050
NoConn ~ 1550 6250
$Comp
L CONN_01X01 P4
U 1 1 57FDE9D6
P 6600 5600
F 0 "P4" H 6678 5641 50  0000 L CNN
F 1 "CONN_01X01" H 6678 5550 50  0000 L CNN
F 2 "Connect:1pin" H 6600 5600 50  0001 C CNN
F 3 "" H 6600 5600 50  0000 C CNN
	1    6600 5600
	-1   0    0    -1  
$EndComp
$Comp
L CONN_01X01 P5
U 1 1 57FDEDFD
P 6600 5900
F 0 "P5" H 6678 5941 50  0000 L CNN
F 1 "CONN_01X01" H 6678 5850 50  0000 L CNN
F 2 "Connect:1pin" H 6600 5900 50  0001 C CNN
F 3 "" H 6600 5900 50  0000 C CNN
	1    6600 5900
	-1   0    0    -1  
$EndComp
$Comp
L CONN_01X01 P6
U 1 1 57FDF1FF
P 6600 6150
F 0 "P6" H 6678 6191 50  0000 L CNN
F 1 "CONN_01X01" H 6678 6100 50  0000 L CNN
F 2 "Connect:1pin" H 6600 6150 50  0001 C CNN
F 3 "" H 6600 6150 50  0000 C CNN
	1    6600 6150
	-1   0    0    -1  
$EndComp
$Comp
L CONN_01X01 P8
U 1 1 57FDF51D
P 6600 6800
F 0 "P8" H 6678 6841 50  0000 L CNN
F 1 "CONN_01X01" H 6678 6750 50  0000 L CNN
F 2 "Connect:1pin" H 6600 6800 50  0001 C CNN
F 3 "" H 6600 6800 50  0000 C CNN
	1    6600 6800
	-1   0    0    -1  
$EndComp
$Comp
L CONN_01X01 P7
U 1 1 57FDF205
P 6600 6500
F 0 "P7" H 6678 6541 50  0000 L CNN
F 1 "CONN_01X01" H 6678 6450 50  0000 L CNN
F 2 "Connect:1pin" H 6600 6500 50  0001 C CNN
F 3 "" H 6600 6500 50  0000 C CNN
	1    6600 6500
	-1   0    0    -1  
$EndComp
NoConn ~ 4050 5250
NoConn ~ 4050 5750
NoConn ~ 5250 4850
NoConn ~ 5250 4950
NoConn ~ 5250 5450
NoConn ~ 5250 5550
NoConn ~ 5250 5750
NoConn ~ 4350 6350
NoConn ~ 4950 6350
Text Label 4650 6550 3    60   ~ 0
GND
Text Label 4550 6700 1    60   ~ 0
VCC
$Comp
L Teensy2.0 U1
U 1 1 57EF177B
P 4550 5950
F 0 "U1" V 4700 6600 60  0000 C CNN
F 1 "Teensy2.0" V 4600 6600 60  0000 C CNN
F 2 "mycomponents:Teensy2" H 4500 6300 60  0001 C CNN
F 3 "" H 4500 6300 60  0001 C CNN
	1    4550 5950
	1    0    0    -1  
$EndComp
NoConn ~ 4750 6350
Text Label 8100 6500 0    60   ~ 0
VCC
NoConn ~ 4550 4400
NoConn ~ 4650 4400
Text Label 4450 6700 1    60   ~ 0
TP1
Text Label 4850 6700 1    60   ~ 0
TP2
NoConn ~ 5250 5650
$Comp
L USB_B-RESCUE-boomerangkeyboard P1
U 1 1 580186C8
P 9750 4550
F 0 "P1" H 9776 4875 50  0000 C CNN
F 1 "USB_B" H 9776 4784 50  0000 C CNN
F 2 "Connect:USB_Mini-B" V 9700 4450 50  0001 C CNN
F 3 "" V 9700 4450 50  0000 C CNN
	1    9750 4550
	1    0    0    -1  
$EndComp
$Comp
L SW_SPDT_Small SWM1
U 1 1 5801CD0D
P 7250 4450
F 0 "SWM1" H 7100 4600 50  0000 C CNN
F 1 "SW_SPDT_Small" H 7250 4684 50  0000 C CNN
F 2 "Buttons_Switches_ThroughHole:SW_PUSH_SMALL" H 7250 4450 50  0001 C CNN
F 3 "" H 7250 4450 50  0000 C CNN
	1    7250 4450
	1    0    0    -1  
$EndComp
$Comp
L SW_SPDT_Small SWM2
U 1 1 5801D899
P 7250 4900
F 0 "SWM2" H 7150 5050 50  0000 C CNN
F 1 "SW_SPDT_Small" H 7250 5134 50  0000 C CNN
F 2 "Buttons_Switches_ThroughHole:SW_PUSH_SMALL" H 7250 4900 50  0001 C CNN
F 3 "" H 7250 4900 50  0000 C CNN
	1    7250 4900
	1    0    0    -1  
$EndComp
$Comp
L SW_SPDT_Small SWM3
U 1 1 5801DB0B
P 7250 5350
F 0 "SWM3" H 7100 5500 50  0000 C CNN
F 1 "SW_SPDT_Small" H 7250 5584 50  0000 C CNN
F 2 "Buttons_Switches_ThroughHole:SW_PUSH_SMALL" H 7250 5350 50  0001 C CNN
F 3 "" H 7250 5350 50  0000 C CNN
	1    7250 5350
	1    0    0    -1  
$EndComp
$Comp
L CONN_01X05 P2
U 1 1 58020939
P 4650 7300
F 0 "P2" V 4522 7578 50  0000 L CNN
F 1 "CONN_01X05" V 4613 7578 50  0000 L CNN
F 2 "Pin_Headers:Pin_Header_Angled_1x05" H 4650 7300 50  0001 C CNN
F 3 "" H 4650 7300 50  0000 C CNN
	1    4650 7300
	0    1    1    0   
$EndComp
Wire Wire Line
	6500 2950 6500 3200
Wire Wire Line
	6950 3500 7100 3500
Wire Wire Line
	7100 3500 7100 3200
Wire Wire Line
	6400 3500 6650 3500
Wire Wire Line
	6500 2200 6500 2450
Wire Wire Line
	6950 2750 7100 2750
Wire Wire Line
	7100 2750 7100 2450
Wire Wire Line
	6400 2750 6650 2750
Wire Wire Line
	6500 1400 6500 1650
Wire Wire Line
	6950 1950 7100 1950
Wire Wire Line
	7100 1950 7100 1650
Wire Wire Line
	6400 1950 6650 1950
Wire Wire Line
	6500 650  6500 900 
Wire Wire Line
	6950 1200 7100 1200
Wire Wire Line
	7100 1200 7100 900 
Wire Wire Line
	6400 1200 6650 1200
Wire Wire Line
	7300 2950 7300 3200
Wire Wire Line
	7750 3500 7900 3500
Wire Wire Line
	7900 3500 7900 3200
Wire Wire Line
	7200 3500 7450 3500
Wire Wire Line
	7300 2200 7300 2450
Wire Wire Line
	7750 2750 7900 2750
Wire Wire Line
	7900 2750 7900 2450
Wire Wire Line
	7200 2750 7450 2750
Wire Wire Line
	7300 1400 7300 1650
Wire Wire Line
	7750 1950 7900 1950
Wire Wire Line
	7900 1950 7900 1650
Wire Wire Line
	7200 1950 7450 1950
Wire Wire Line
	7300 650  7300 900 
Wire Wire Line
	7750 1200 7900 1200
Wire Wire Line
	7900 1200 7900 900 
Wire Wire Line
	7200 1200 7450 1200
Wire Wire Line
	8100 2950 8100 3200
Wire Wire Line
	8550 3500 8700 3500
Wire Wire Line
	8700 3500 8700 3200
Wire Wire Line
	8000 3500 8250 3500
Wire Wire Line
	8100 2200 8100 2450
Wire Wire Line
	8550 2750 8700 2750
Wire Wire Line
	8700 2750 8700 2450
Wire Wire Line
	8000 2750 8250 2750
Wire Wire Line
	8100 1400 8100 1650
Wire Wire Line
	8550 1950 8700 1950
Wire Wire Line
	8700 1950 8700 1650
Wire Wire Line
	8000 1950 8250 1950
Wire Wire Line
	8100 650  8100 900 
Wire Wire Line
	8550 1200 8700 1200
Wire Wire Line
	8700 1200 8700 900 
Wire Wire Line
	8000 1200 8250 1200
Wire Wire Line
	8900 2950 8900 3200
Wire Wire Line
	9350 3500 9500 3500
Wire Wire Line
	9500 3500 9500 3200
Wire Wire Line
	8800 3500 9050 3500
Wire Wire Line
	8900 2200 8900 2450
Wire Wire Line
	9350 2750 9500 2750
Wire Wire Line
	9500 2750 9500 2450
Wire Wire Line
	8800 2750 9050 2750
Wire Wire Line
	8900 1400 8900 1650
Wire Wire Line
	9350 1950 9500 1950
Wire Wire Line
	9500 1950 9500 1650
Wire Wire Line
	8800 1950 9050 1950
Wire Wire Line
	8900 650  8900 900 
Wire Wire Line
	9350 1200 9500 1200
Wire Wire Line
	9500 1200 9500 900 
Wire Wire Line
	8800 1200 9050 1200
Wire Wire Line
	10150 3500 10300 3500
Wire Wire Line
	10300 3500 10300 3200
Wire Wire Line
	9600 3500 9850 3500
Wire Wire Line
	9700 2200 9700 2450
Wire Wire Line
	10150 2750 10300 2750
Wire Wire Line
	10300 2750 10300 2450
Wire Wire Line
	9600 2750 9850 2750
Wire Wire Line
	9700 1400 9700 1650
Wire Wire Line
	10150 1950 10300 1950
Wire Wire Line
	10300 1950 10300 1650
Wire Wire Line
	9600 1950 9850 1950
Wire Wire Line
	9700 650  9700 900 
Wire Wire Line
	10150 1200 10300 1200
Wire Wire Line
	10300 1200 10300 900 
Wire Wire Line
	9600 1200 9850 1200
Wire Wire Line
	10950 3500 11100 3500
Wire Wire Line
	11100 3500 11100 3200
Wire Wire Line
	10400 3500 10650 3500
Wire Wire Line
	10500 2200 10500 2450
Wire Wire Line
	10950 2750 11100 2750
Wire Wire Line
	11100 2750 11100 2450
Wire Wire Line
	10400 2750 10650 2750
Wire Wire Line
	10500 1400 10500 1650
Wire Wire Line
	10950 1950 11100 1950
Wire Wire Line
	11100 1950 11100 1650
Wire Wire Line
	10400 1950 10650 1950
Wire Wire Line
	10500 650  10500 900 
Wire Wire Line
	10950 1200 11100 1200
Wire Wire Line
	11100 1200 11100 900 
Wire Wire Line
	10400 1200 10650 1200
Wire Wire Line
	6100 2200 10500 2200
Wire Wire Line
	6100 1400 10500 1400
Wire Wire Line
	6100 650  10500 650 
Connection ~ 6500 2950
Connection ~ 7300 2950
Wire Wire Line
	9700 2950 9700 3200
Connection ~ 8100 2950
Connection ~ 8900 2950
Connection ~ 6500 2200
Connection ~ 7300 2200
Connection ~ 8100 2200
Connection ~ 8900 2200
Connection ~ 8800 2750
Connection ~ 8000 2750
Connection ~ 7200 2750
Connection ~ 6400 2750
Connection ~ 9600 2750
Connection ~ 10400 2750
Connection ~ 9700 2950
Connection ~ 9700 2200
Connection ~ 9700 1400
Connection ~ 10400 1950
Connection ~ 10400 1200
Connection ~ 9600 1200
Connection ~ 9600 1950
Connection ~ 9700 650 
Connection ~ 8900 1400
Connection ~ 8800 1950
Connection ~ 8900 650 
Connection ~ 8800 1200
Connection ~ 8000 1200
Connection ~ 8100 650 
Connection ~ 8000 1950
Connection ~ 7200 1950
Connection ~ 7300 650 
Connection ~ 7200 1200
Connection ~ 6400 1200
Connection ~ 6500 650 
Connection ~ 6400 1950
Connection ~ 8100 1400
Connection ~ 7300 1400
Connection ~ 6500 1400
Wire Wire Line
	1550 3500 1700 3500
Wire Wire Line
	1700 3500 1700 3200
Wire Wire Line
	1000 3500 1250 3500
Wire Wire Line
	1100 2200 1100 2450
Wire Wire Line
	1550 2750 1700 2750
Wire Wire Line
	1700 2750 1700 2450
Wire Wire Line
	1000 2750 1250 2750
Wire Wire Line
	1100 1400 1100 1650
Wire Wire Line
	1550 1950 1700 1950
Wire Wire Line
	1700 1950 1700 1650
Wire Wire Line
	1000 1950 1250 1950
Wire Wire Line
	1100 650  1100 900 
Wire Wire Line
	1550 1200 1700 1200
Wire Wire Line
	1700 1200 1700 900 
Wire Wire Line
	1000 1200 1250 1200
Wire Wire Line
	1900 2950 1900 3200
Wire Wire Line
	2350 3500 2500 3500
Wire Wire Line
	2500 3500 2500 3200
Wire Wire Line
	1800 3500 2050 3500
Wire Wire Line
	1900 2200 1900 2450
Wire Wire Line
	2350 2750 2500 2750
Wire Wire Line
	2500 2750 2500 2450
Wire Wire Line
	1800 2750 2050 2750
Wire Wire Line
	1900 1400 1900 1650
Wire Wire Line
	2350 1950 2500 1950
Wire Wire Line
	2500 1950 2500 1650
Wire Wire Line
	1800 1950 2050 1950
Wire Wire Line
	1900 650  1900 900 
Wire Wire Line
	2350 1200 2500 1200
Wire Wire Line
	2500 1200 2500 900 
Wire Wire Line
	1800 1200 2050 1200
Wire Wire Line
	2700 2950 2700 3200
Wire Wire Line
	3150 3500 3300 3500
Wire Wire Line
	3300 3500 3300 3200
Wire Wire Line
	2600 3500 2850 3500
Wire Wire Line
	2700 2200 2700 2450
Wire Wire Line
	3150 2750 3300 2750
Wire Wire Line
	3300 2750 3300 2450
Wire Wire Line
	2600 2750 2850 2750
Wire Wire Line
	2700 1400 2700 1650
Wire Wire Line
	3150 1950 3300 1950
Wire Wire Line
	3300 1950 3300 1650
Wire Wire Line
	2600 1950 2850 1950
Wire Wire Line
	2700 650  2700 900 
Wire Wire Line
	3150 1200 3300 1200
Wire Wire Line
	3300 1200 3300 900 
Wire Wire Line
	2600 1200 2850 1200
Wire Wire Line
	3500 2950 3500 3200
Wire Wire Line
	3950 3500 4100 3500
Wire Wire Line
	4100 3500 4100 3200
Wire Wire Line
	3400 3500 3650 3500
Wire Wire Line
	3500 2200 3500 2450
Wire Wire Line
	3950 2750 4100 2750
Wire Wire Line
	4100 2750 4100 2450
Wire Wire Line
	3400 2750 3650 2750
Wire Wire Line
	3500 1400 3500 1650
Wire Wire Line
	3950 1950 4100 1950
Wire Wire Line
	4100 1950 4100 1650
Wire Wire Line
	3400 1950 3650 1950
Wire Wire Line
	3500 650  3500 900 
Wire Wire Line
	3950 1200 4100 1200
Wire Wire Line
	4100 1200 4100 900 
Wire Wire Line
	3400 1200 3650 1200
Wire Wire Line
	4750 3500 4900 3500
Wire Wire Line
	4900 3500 4900 3200
Wire Wire Line
	4200 3500 4450 3500
Wire Wire Line
	4300 2200 4300 2450
Wire Wire Line
	4750 2750 4900 2750
Wire Wire Line
	4900 2750 4900 2450
Wire Wire Line
	4200 2750 4450 2750
Wire Wire Line
	4300 1400 4300 1650
Wire Wire Line
	4750 1950 4900 1950
Wire Wire Line
	4900 1950 4900 1650
Wire Wire Line
	4200 1950 4450 1950
Wire Wire Line
	4300 650  4300 900 
Wire Wire Line
	4750 1200 4900 1200
Wire Wire Line
	4900 1200 4900 900 
Wire Wire Line
	4200 1200 4450 1200
Wire Wire Line
	5100 2950 5100 3200
Wire Wire Line
	5550 3500 5700 3500
Wire Wire Line
	5700 3500 5700 3200
Wire Wire Line
	5000 3500 5250 3500
Wire Wire Line
	5100 2200 5100 2450
Wire Wire Line
	5550 2750 5700 2750
Wire Wire Line
	5700 2750 5700 2450
Wire Wire Line
	5000 2750 5250 2750
Wire Wire Line
	5100 1400 5100 1650
Wire Wire Line
	5550 1950 5700 1950
Wire Wire Line
	5700 1950 5700 1650
Wire Wire Line
	5000 1950 5250 1950
Wire Wire Line
	5100 650  5100 900 
Wire Wire Line
	5550 1200 5700 1200
Wire Wire Line
	5700 1200 5700 900 
Wire Wire Line
	5000 1200 5250 1200
Wire Wire Line
	1100 2950 5800 2950
Wire Wire Line
	1100 2200 5800 2200
Wire Wire Line
	1100 1400 5800 1400
Wire Wire Line
	1100 650  5800 650 
Wire Wire Line
	4300 2950 4300 3200
Connection ~ 2700 2950
Connection ~ 3500 2950
Connection ~ 1900 2200
Connection ~ 2700 2200
Connection ~ 3500 2200
Connection ~ 3400 2750
Connection ~ 2600 2750
Connection ~ 1800 2750
Connection ~ 1000 2750
Connection ~ 4200 2750
Connection ~ 5000 2750
Connection ~ 4300 2950
Connection ~ 4300 2200
Connection ~ 4300 1400
Connection ~ 5000 1950
Connection ~ 5000 1200
Connection ~ 4200 1200
Connection ~ 4200 1950
Connection ~ 4300 650 
Connection ~ 3500 1400
Connection ~ 3400 1950
Connection ~ 3500 650 
Connection ~ 3400 1200
Connection ~ 2600 1200
Connection ~ 2700 650 
Connection ~ 2600 1950
Connection ~ 1800 1950
Connection ~ 1900 650 
Connection ~ 1800 1200
Connection ~ 1000 1200
Connection ~ 1000 1950
Connection ~ 2700 1400
Connection ~ 1900 1400
Wire Wire Line
	1000 1200 1000 4100
Wire Wire Line
	1800 1200 1800 4100
Wire Wire Line
	2600 1200 2600 4100
Wire Wire Line
	3400 1200 3400 4100
Wire Wire Line
	4200 1200 4200 4100
Wire Wire Line
	5000 1200 5000 4100
Wire Wire Line
	6400 1200 6400 4100
Wire Wire Line
	7200 1200 7200 4100
Wire Wire Line
	8000 1200 8000 4100
Wire Wire Line
	8800 1200 8800 4100
Wire Wire Line
	9600 1200 9600 4100
Wire Wire Line
	10400 1200 10400 4100
Connection ~ 9600 3500
Connection ~ 8800 3500
Connection ~ 7200 3500
Connection ~ 8000 3500
Connection ~ 6400 3500
Connection ~ 4200 3500
Connection ~ 3400 3500
Connection ~ 1000 3500
Connection ~ 5000 3500
Wire Wire Line
	4050 4850 3700 4850
Wire Wire Line
	4050 4950 3700 4950
Wire Wire Line
	4050 5050 3700 5050
Wire Wire Line
	4050 5150 3700 5150
Wire Wire Line
	5250 5050 5600 5050
Wire Wire Line
	5250 5150 5600 5150
Wire Wire Line
	5250 5250 5600 5250
Wire Wire Line
	5250 5350 5600 5350
Connection ~ 2600 3500
Connection ~ 1800 3500
Connection ~ 10400 3500
Connection ~ 5100 650 
Connection ~ 5100 1400
Connection ~ 5100 2200
Connection ~ 5100 2950
Wire Wire Line
	6800 5900 7250 5900
Wire Wire Line
	6800 6150 8100 6150
Wire Wire Line
	6800 6800 8100 6800
Wire Wire Line
	7250 5900 7250 6300
Wire Wire Line
	7500 6200 7500 6150
Connection ~ 7500 6150
Connection ~ 7000 5600
Connection ~ 7000 5900
Connection ~ 7500 6500
Wire Wire Line
	6800 6500 8100 6500
Connection ~ 7750 6500
Connection ~ 7750 6800
Connection ~ 1900 2950
Wire Wire Line
	1100 2950 1100 3200
Connection ~ 10500 650 
Connection ~ 10500 1400
Connection ~ 10500 2200
Wire Wire Line
	3400 4550 4050 4550
Wire Wire Line
	1550 5650 1200 5650
Wire Wire Line
	1550 5550 1200 5550
Wire Wire Line
	1550 5450 1200 5450
Wire Wire Line
	1550 5350 1200 5350
Wire Wire Line
	2550 5750 2900 5750
Wire Wire Line
	2550 5650 2900 5650
Wire Wire Line
	2550 5550 2900 5550
Wire Wire Line
	2550 5450 2900 5450
Wire Wire Line
	2550 5350 2900 5350
Wire Wire Line
	2550 5250 2900 5250
Wire Wire Line
	1100 5950 1550 5950
Wire Wire Line
	1100 6050 1550 6050
Wire Wire Line
	1000 6150 1550 6150
Wire Wire Line
	6100 2950 10500 2950
Connection ~ 10500 2950
Wire Wire Line
	10500 2950 10500 3200
Wire Wire Line
	4050 5550 3700 5550
Wire Wire Line
	4050 5650 3700 5650
Wire Wire Line
	3100 6150 2550 6150
Wire Wire Line
	1100 4450 1100 5950
Wire Wire Line
	3100 4450 3100 6150
Wire Wire Line
	2550 6250 2900 6250
Wire Wire Line
	2900 6250 2900 7050
Wire Wire Line
	2900 7050 900  7050
Wire Wire Line
	1550 4950 900  4950
Wire Wire Line
	4050 4550 4050 4750
Wire Wire Line
	3500 5350 4050 5350
Wire Wire Line
	4050 5450 3600 5450
Wire Wire Line
	3600 5450 3600 6900
Wire Wire Line
	4650 6350 4650 6700
Wire Wire Line
	4550 6350 4550 6700
Wire Wire Line
	4450 6350 4450 6750
Wire Wire Line
	4850 6350 4850 6700
Wire Wire Line
	6800 4450 7050 4450
Wire Wire Line
	6800 5350 7050 5350
Wire Wire Line
	7050 4900 6800 4900
Wire Wire Line
	5250 4750 5750 4750
Wire Wire Line
	5750 4750 5750 6500
Wire Wire Line
	5750 6500 5150 6500
Wire Wire Line
	5150 6500 5150 7100
Wire Wire Line
	5150 7100 4850 7100
Wire Wire Line
	3600 6900 4650 6900
Wire Wire Line
	4650 6900 4650 7100
Wire Wire Line
	3500 5350 3500 6800
Wire Wire Line
	3500 6800 4750 6800
Wire Wire Line
	4750 6800 4750 7100
Wire Wire Line
	3400 4550 3400 7000
Wire Wire Line
	3400 7000 4550 7000
Wire Wire Line
	4550 7000 4550 7100
$Comp
L CONN_01X05 P3
U 1 1 58030FDA
P 1000 7450
F 0 "P3" V 872 7728 50  0000 L CNN
F 1 "CONN_01X05" V 963 7728 50  0000 L CNN
F 2 "Socket_Strips:Socket_Strip_Angled_1x05" H 1000 7450 50  0001 C CNN
F 3 "" H 1000 7450 50  0000 C CNN
	1    1000 7450
	0    1    1    0   
$EndComp
Wire Wire Line
	1000 6150 1000 7250
Wire Wire Line
	1100 7250 1100 6050
Wire Wire Line
	1100 4450 3100 4450
Wire Wire Line
	900  4950 900  7250
NoConn ~ 800  7250
$Comp
L CONN_01X01 PUSB1
U 1 1 58046C97
P 9250 6350
F 0 "PUSB1" H 9328 6391 50  0000 L CNN
F 1 "CONN_01X01" H 9328 6300 50  0000 L CNN
F 2 "Connect:1pin" H 9250 6350 50  0001 C CNN
F 3 "" H 9250 6350 50  0000 C CNN
	1    9250 6350
	0    -1   1    0   
$EndComp
Wire Wire Line
	9550 4850 9250 4850
Wire Wire Line
	9250 4850 9250 6150
Wire Wire Line
	9650 4850 9650 5050
Wire Wire Line
	9650 5050 9550 5050
Wire Wire Line
	9550 5050 9550 5150
Wire Wire Line
	9750 4850 9750 5050
Wire Wire Line
	9750 5050 9850 5050
Wire Wire Line
	9850 5050 9850 5150
Wire Wire Line
	9850 4850 10050 4850
Wire Wire Line
	10050 4850 10050 6400
Wire Wire Line
	10050 4450 10200 4450
Wire Wire Line
	10200 4450 10200 5150
$Comp
L CONN_01X01 PUSB2
U 1 1 5804876B
P 9550 5350
F 0 "PUSB2" H 9628 5391 50  0000 L CNN
F 1 "CONN_01X01" H 9628 5300 50  0000 L CNN
F 2 "Connect:1pin" H 9550 5350 50  0001 C CNN
F 3 "" H 9550 5350 50  0000 C CNN
	1    9550 5350
	0    -1   1    0   
$EndComp
$Comp
L CONN_01X01 PUSB3
U 1 1 58048CE8
P 9850 5350
F 0 "PUSB3" H 9928 5391 50  0000 L CNN
F 1 "CONN_01X01" H 9928 5300 50  0000 L CNN
F 2 "Connect:1pin" H 9850 5350 50  0001 C CNN
F 3 "" H 9850 5350 50  0000 C CNN
	1    9850 5350
	0    -1   1    0   
$EndComp
$Comp
L CONN_01X01 PUSB4
U 1 1 5804902C
P 9800 6350
F 0 "PUSB4" H 9878 6391 50  0000 L CNN
F 1 "CONN_01X01" H 9878 6300 50  0000 L CNN
F 2 "Connect:1pin" H 9800 6350 50  0001 C CNN
F 3 "" H 9800 6350 50  0000 C CNN
	1    9800 6350
	0    -1   1    0   
$EndComp
$Comp
L CONN_01X01 PUSB5
U 1 1 580491A7
P 10200 5350
F 0 "PUSB5" H 10278 5391 50  0000 L CNN
F 1 "CONN_01X01" H 10278 5300 50  0000 L CNN
F 2 "Connect:1pin" H 10200 5350 50  0001 C CNN
F 3 "" H 10200 5350 50  0000 C CNN
	1    10200 5350
	0    -1   1    0   
$EndComp
Wire Wire Line
	7450 4800 7800 4800
Connection ~ 7800 4800
Wire Wire Line
	7450 5250 7800 5250
Connection ~ 7800 5250
NoConn ~ 7450 5000
NoConn ~ 7450 5450
NoConn ~ 6450 6850
$Comp
L CONN_01X01 P9
U 1 1 5805281D
P 6600 4450
F 0 "P9" H 6678 4491 50  0000 L CNN
F 1 "CONN_01X01" H 6678 4400 50  0000 L CNN
F 2 "Connect:1pin" H 6600 4450 50  0001 C CNN
F 3 "" H 6600 4450 50  0000 C CNN
	1    6600 4450
	-1   0    0    -1  
$EndComp
$Comp
L CONN_01X01 P10
U 1 1 58052B7F
P 6600 4900
F 0 "P10" H 6678 4941 50  0000 L CNN
F 1 "CONN_01X01" H 6678 4850 50  0000 L CNN
F 2 "Connect:1pin" H 6600 4900 50  0001 C CNN
F 3 "" H 6600 4900 50  0000 C CNN
	1    6600 4900
	-1   0    0    -1  
$EndComp
$Comp
L CONN_01X01 P11
U 1 1 58052D0B
P 6600 5350
F 0 "P11" H 6678 5391 50  0000 L CNN
F 1 "CONN_01X01" H 6678 5300 50  0000 L CNN
F 2 "Connect:1pin" H 6600 5350 50  0001 C CNN
F 3 "" H 6600 5350 50  0000 C CNN
	1    6600 5350
	-1   0    0    -1  
$EndComp
NoConn ~ 4450 7100
Connection ~ 900  7050
$Comp
L C C1
U 1 1 58092366
P 9500 6150
F 0 "C1" V 9248 6150 50  0000 C CNN
F 1 "C" V 9339 6150 50  0000 C CNN
F 2 "Capacitors_ThroughHole:C_Rect_L7_W2.5_P5" H 9538 6000 50  0001 C CNN
F 3 "" H 9500 6150 50  0000 C CNN
	1    9500 6150
	0    1    1    0   
$EndComp
Wire Wire Line
	10050 6150 9650 6150
Wire Wire Line
	9250 6150 9350 6150
Connection ~ 9800 6150
Connection ~ 9250 6150
$Comp
L CP_Small C2
U 1 1 580930EC
P 7250 6400
F 0 "C2" H 7338 6446 50  0000 L CNN
F 1 "CP_Small" H 7338 6355 50  0000 L CNN
F 2 "Capacitors_Tantalum_SMD:TantalC_SizeR_EIA-2012" H 7250 6400 50  0001 C CNN
F 3 "" H 7250 6400 50  0000 C CNN
	1    7250 6400
	1    0    0    -1  
$EndComp
Wire Wire Line
	1450 5950 1450 7000
Wire Wire Line
	1450 7000 1200 7000
Wire Wire Line
	1200 7000 1200 7250
Connection ~ 1450 5950
$Comp
L R R4
U 1 1 580AAEF1
P 1300 6500
F 0 "R4" V 1093 6500 50  0000 C CNN
F 1 "R" V 1184 6500 50  0000 C CNN
F 2 "Resistors_ThroughHole:Resistor_Horizontal_RM7mm" V 1230 6500 50  0001 C CNN
F 3 "" H 1300 6500 50  0000 C CNN
	1    1300 6500
	0    1    1    0   
$EndComp
$Comp
L R R5
U 1 1 580AB1BB
P 1300 6850
F 0 "R5" V 1093 6850 50  0000 C CNN
F 1 "R" V 1184 6850 50  0000 C CNN
F 2 "Resistors_ThroughHole:Resistor_Horizontal_RM7mm" V 1230 6850 50  0001 C CNN
F 3 "" H 1300 6850 50  0000 C CNN
	1    1300 6850
	0    1    1    0   
$EndComp
Wire Wire Line
	1150 6850 1000 6850
Connection ~ 1000 6850
Wire Wire Line
	1150 6500 1100 6500
Connection ~ 1100 6500
Connection ~ 1450 6500
Connection ~ 1450 6850
Wire Wire Line
	7450 4350 7800 4350
Wire Wire Line
	7800 4350 7800 5600
Connection ~ 7800 5600
NoConn ~ 7450 4550
$Comp
L MCP23018 U2
U 1 1 57FD7EB8
P 2050 5750
F 0 "U2" H 2000 6817 50  0000 C CNN
F 1 "MCP23018" H 2000 6726 50  0000 C CNN
F 2 "mycomponents:MCP23018" H 2100 4800 50  0001 L CNN
F 3 "" H 2300 6750 50  0001 C CNN
	1    2050 5750
	1    0    0    -1  
$EndComp
Connection ~ 7250 6500
Wire Wire Line
	6800 5600 8050 5600
Text Label 8000 5600 0    60   ~ 0
GND
Connection ~ 10050 6150
Text Label 10050 6400 1    60   ~ 0
GND
$EndSCHEMATC
