(export (version D)
  (design
    (source /home/tye/workspace/boomerangkeyboard/boomerangkeyboard.sch)
    (date "Sun 23 Oct 2016 10:47:40 PM CDT")
    (tool "Eeschema 201610101318+7299~55~ubuntu14.04.1-")
    (sheet (number 1) (name /) (tstamps /)
      (title_block
        (title)
        (company)
        (rev)
        (date)
        (source boomerangkeyboard.sch)
        (comment (number 1) (value ""))
        (comment (number 2) (value ""))
        (comment (number 3) (value ""))
        (comment (number 4) (value "")))))
  (components
    (comp (ref SW0:6)
      (value SW_MATIAS)
      (footprint mycomponents:SW_Matias_Quiet_LED_Hole)
      (libsource (lib device) (part SW_PUSH))
      (sheetpath (names /) (tstamps /))
      (tstamp 57EC678D))
    (comp (ref D0:6)
      (value D)
      (footprint Diodes_SMD:D-Pak_TO252AA)
      (libsource (lib device) (part D))
      (sheetpath (names /) (tstamps /))
      (tstamp 57EC6855))
    (comp (ref SW1:6)
      (value SW_MATIAS)
      (footprint mycomponents:SW_Matias_Quiet_LED_Hole)
      (libsource (lib device) (part SW_PUSH))
      (sheetpath (names /) (tstamps /))
      (tstamp 57EC6E68))
    (comp (ref D1:6)
      (value D)
      (footprint Diodes_SMD:D-Pak_TO252AA)
      (libsource (lib device) (part D))
      (sheetpath (names /) (tstamps /))
      (tstamp 57EC6E6E))
    (comp (ref SW2:6)
      (value SW_MATIAS)
      (footprint mycomponents:SW_Matias_Quiet_LED_Hole)
      (libsource (lib device) (part SW_PUSH))
      (sheetpath (names /) (tstamps /))
      (tstamp 57EC712C))
    (comp (ref D2:6)
      (value D)
      (footprint Diodes_SMD:D-Pak_TO252AA)
      (libsource (lib device) (part D))
      (sheetpath (names /) (tstamps /))
      (tstamp 57EC7132))
    (comp (ref SW3:6)
      (value SW_MATIAS)
      (footprint mycomponents:SW_Matias_Quiet_LED_Hole)
      (libsource (lib device) (part SW_PUSH))
      (sheetpath (names /) (tstamps /))
      (tstamp 57EC713C))
    (comp (ref D3:6)
      (value D)
      (footprint Diodes_SMD:D-Pak_TO252AA)
      (libsource (lib device) (part D))
      (sheetpath (names /) (tstamps /))
      (tstamp 57EC7142))
    (comp (ref SW0:7)
      (value SW_MATIAS)
      (footprint mycomponents:SW_Matias_Quiet_LED_Hole)
      (libsource (lib device) (part SW_PUSH))
      (sheetpath (names /) (tstamps /))
      (tstamp 57EC8144))
    (comp (ref D0:7)
      (value D)
      (footprint Diodes_SMD:D-Pak_TO252AA)
      (libsource (lib device) (part D))
      (sheetpath (names /) (tstamps /))
      (tstamp 57EC814A))
    (comp (ref SW1:7)
      (value SW_MATIAS)
      (footprint mycomponents:SW_Matias_Quiet_LED_Hole)
      (libsource (lib device) (part SW_PUSH))
      (sheetpath (names /) (tstamps /))
      (tstamp 57EC8154))
    (comp (ref D1:7)
      (value D)
      (footprint Diodes_SMD:D-Pak_TO252AA)
      (libsource (lib device) (part D))
      (sheetpath (names /) (tstamps /))
      (tstamp 57EC815A))
    (comp (ref SW2:7)
      (value SW_MATIAS)
      (footprint mycomponents:SW_Matias_Quiet_LED_Hole)
      (libsource (lib device) (part SW_PUSH))
      (sheetpath (names /) (tstamps /))
      (tstamp 57EC8164))
    (comp (ref D2:7)
      (value D)
      (footprint Diodes_SMD:D-Pak_TO252AA)
      (libsource (lib device) (part D))
      (sheetpath (names /) (tstamps /))
      (tstamp 57EC816A))
    (comp (ref SW3:7)
      (value SW_MATIAS)
      (footprint mycomponents:SW_Matias_Quiet_LED_Hole)
      (libsource (lib device) (part SW_PUSH))
      (sheetpath (names /) (tstamps /))
      (tstamp 57EC8174))
    (comp (ref D3:7)
      (value D)
      (footprint Diodes_SMD:D-Pak_TO252AA)
      (libsource (lib device) (part D))
      (sheetpath (names /) (tstamps /))
      (tstamp 57EC817A))
    (comp (ref SW0:8)
      (value SW_MATIAS)
      (footprint mycomponents:SW_Matias_Quiet_LED_Hole)
      (libsource (lib device) (part SW_PUSH))
      (sheetpath (names /) (tstamps /))
      (tstamp 57EC8614))
    (comp (ref D0:8)
      (value D)
      (footprint Diodes_SMD:D-Pak_TO252AA)
      (libsource (lib device) (part D))
      (sheetpath (names /) (tstamps /))
      (tstamp 57EC861A))
    (comp (ref SW1:8)
      (value SW_MATIAS)
      (footprint mycomponents:SW_Matias_Quiet_LED_Hole)
      (libsource (lib device) (part SW_PUSH))
      (sheetpath (names /) (tstamps /))
      (tstamp 57EC8624))
    (comp (ref D1:8)
      (value D)
      (footprint Diodes_SMD:D-Pak_TO252AA)
      (libsource (lib device) (part D))
      (sheetpath (names /) (tstamps /))
      (tstamp 57EC862A))
    (comp (ref SW2:8)
      (value SW_MATIAS)
      (footprint mycomponents:SW_Matias_Quiet_LED_Hole)
      (libsource (lib device) (part SW_PUSH))
      (sheetpath (names /) (tstamps /))
      (tstamp 57EC8634))
    (comp (ref D2:8)
      (value D)
      (footprint Diodes_SMD:D-Pak_TO252AA)
      (libsource (lib device) (part D))
      (sheetpath (names /) (tstamps /))
      (tstamp 57EC863A))
    (comp (ref SW3:8)
      (value SW_MATIAS)
      (footprint mycomponents:SW_Matias_Quiet_LED_Hole)
      (libsource (lib device) (part SW_PUSH))
      (sheetpath (names /) (tstamps /))
      (tstamp 57EC8644))
    (comp (ref D3:8)
      (value D)
      (footprint Diodes_SMD:D-Pak_TO252AA)
      (libsource (lib device) (part D))
      (sheetpath (names /) (tstamps /))
      (tstamp 57EC864A))
    (comp (ref SW0:9)
      (value SW_MATIAS)
      (footprint mycomponents:SW_Matias_Quiet_LED_Hole)
      (libsource (lib device) (part SW_PUSH))
      (sheetpath (names /) (tstamps /))
      (tstamp 57EC8654))
    (comp (ref D0:9)
      (value D)
      (footprint Diodes_SMD:D-Pak_TO252AA)
      (libsource (lib device) (part D))
      (sheetpath (names /) (tstamps /))
      (tstamp 57EC865A))
    (comp (ref SW1:9)
      (value SW_MATIAS)
      (footprint mycomponents:SW_Matias_Quiet_LED_Hole)
      (libsource (lib device) (part SW_PUSH))
      (sheetpath (names /) (tstamps /))
      (tstamp 57EC8664))
    (comp (ref D1:9)
      (value D)
      (footprint Diodes_SMD:D-Pak_TO252AA)
      (libsource (lib device) (part D))
      (sheetpath (names /) (tstamps /))
      (tstamp 57EC866A))
    (comp (ref SW2:9)
      (value SW_MATIAS)
      (footprint mycomponents:SW_Matias_Quiet_LED_Hole)
      (libsource (lib device) (part SW_PUSH))
      (sheetpath (names /) (tstamps /))
      (tstamp 57EC8674))
    (comp (ref D2:9)
      (value D)
      (footprint Diodes_SMD:D-Pak_TO252AA)
      (libsource (lib device) (part D))
      (sheetpath (names /) (tstamps /))
      (tstamp 57EC867A))
    (comp (ref SW3:9)
      (value SW_MATIAS)
      (footprint mycomponents:SW_Matias_Quiet_LED_Hole)
      (libsource (lib device) (part SW_PUSH))
      (sheetpath (names /) (tstamps /))
      (tstamp 57EC8684))
    (comp (ref D3:9)
      (value D)
      (footprint Diodes_SMD:D-Pak_TO252AA)
      (libsource (lib device) (part D))
      (sheetpath (names /) (tstamps /))
      (tstamp 57EC868A))
    (comp (ref D0:10)
      (value D)
      (footprint Diodes_SMD:D-Pak_TO252AA)
      (libsource (lib device) (part D))
      (sheetpath (names /) (tstamps /))
      (tstamp 57EC8C3A))
    (comp (ref SW1:10)
      (value SW_MATIAS)
      (footprint mycomponents:SW_Matias_Quiet_LED_Hole)
      (libsource (lib device) (part SW_PUSH))
      (sheetpath (names /) (tstamps /))
      (tstamp 57EC8C44))
    (comp (ref D1:10)
      (value D)
      (footprint Diodes_SMD:D-Pak_TO252AA)
      (libsource (lib device) (part D))
      (sheetpath (names /) (tstamps /))
      (tstamp 57EC8C4A))
    (comp (ref SW2:10)
      (value SW_MATIAS)
      (footprint mycomponents:SW_Matias_Quiet_LED_Hole)
      (libsource (lib device) (part SW_PUSH))
      (sheetpath (names /) (tstamps /))
      (tstamp 57EC8C54))
    (comp (ref D2:10)
      (value D)
      (footprint Diodes_SMD:D-Pak_TO252AA)
      (libsource (lib device) (part D))
      (sheetpath (names /) (tstamps /))
      (tstamp 57EC8C5A))
    (comp (ref SW3:10)
      (value SW_MATIAS)
      (footprint mycomponents:SW_Matias_Quiet_LED_Hole)
      (libsource (lib device) (part SW_PUSH))
      (sheetpath (names /) (tstamps /))
      (tstamp 57EC8C64))
    (comp (ref D3:10)
      (value D)
      (footprint Diodes_SMD:D-Pak_TO252AA)
      (libsource (lib device) (part D))
      (sheetpath (names /) (tstamps /))
      (tstamp 57EC8C6A))
    (comp (ref SW0:11)
      (value SW_MATIAS)
      (footprint mycomponents:SW_Matias_Quiet_LED_Hole)
      (libsource (lib device) (part SW_PUSH))
      (sheetpath (names /) (tstamps /))
      (tstamp 57EC8C74))
    (comp (ref D0:11)
      (value D)
      (footprint Diodes_SMD:D-Pak_TO252AA)
      (libsource (lib device) (part D))
      (sheetpath (names /) (tstamps /))
      (tstamp 57EC8C7A))
    (comp (ref SW1:11)
      (value SW_MATIAS)
      (footprint mycomponents:SW_Matias_Quiet_LED_Hole)
      (libsource (lib device) (part SW_PUSH))
      (sheetpath (names /) (tstamps /))
      (tstamp 57EC8C84))
    (comp (ref D1:11)
      (value D)
      (footprint Diodes_SMD:D-Pak_TO252AA)
      (libsource (lib device) (part D))
      (sheetpath (names /) (tstamps /))
      (tstamp 57EC8C8A))
    (comp (ref SW2:11)
      (value SW_MATIAS)
      (footprint mycomponents:SW_Matias_Quiet_LED_Hole)
      (libsource (lib device) (part SW_PUSH))
      (sheetpath (names /) (tstamps /))
      (tstamp 57EC8C94))
    (comp (ref D2:11)
      (value D)
      (footprint Diodes_SMD:D-Pak_TO252AA)
      (libsource (lib device) (part D))
      (sheetpath (names /) (tstamps /))
      (tstamp 57EC8C9A))
    (comp (ref SW3:11)
      (value SW_MATIAS)
      (footprint mycomponents:SW_Matias_Quiet_LED_Hole)
      (libsource (lib device) (part SW_PUSH))
      (sheetpath (names /) (tstamps /))
      (tstamp 57EC8CA4))
    (comp (ref D3:11)
      (value D)
      (footprint Diodes_SMD:D-Pak_TO252AA)
      (libsource (lib device) (part D))
      (sheetpath (names /) (tstamps /))
      (tstamp 57EC8CAA))
    (comp (ref SW0:10)
      (value SW_MATIAS)
      (footprint mycomponents:SW_Matias_Quiet_LED_Hole)
      (libsource (lib device) (part SW_PUSH))
      (sheetpath (names /) (tstamps /))
      (tstamp 57EC8C34))
    (comp (ref SW0:0)
      (value SW_MATIAS)
      (footprint mycomponents:SW_Matias_Quiet_LED_Hole)
      (libsource (lib device) (part SW_PUSH))
      (sheetpath (names /) (tstamps /))
      (tstamp 57EDFBEE))
    (comp (ref D0:0)
      (value D)
      (footprint Diodes_SMD:D-Pak_TO252AA)
      (libsource (lib device) (part D))
      (sheetpath (names /) (tstamps /))
      (tstamp 57EDFBF4))
    (comp (ref SW1:0)
      (value SW_MATIAS)
      (footprint mycomponents:SW_Matias_Quiet_LED_Hole)
      (libsource (lib device) (part SW_PUSH))
      (sheetpath (names /) (tstamps /))
      (tstamp 57EDFBFA))
    (comp (ref D1:0)
      (value D)
      (footprint Diodes_SMD:D-Pak_TO252AA)
      (libsource (lib device) (part D))
      (sheetpath (names /) (tstamps /))
      (tstamp 57EDFC00))
    (comp (ref SW2:0)
      (value SW_MATIAS)
      (footprint mycomponents:SW_Matias_Quiet_LED_Hole)
      (libsource (lib device) (part SW_PUSH))
      (sheetpath (names /) (tstamps /))
      (tstamp 57EDFC06))
    (comp (ref D2:0)
      (value D)
      (footprint Diodes_SMD:D-Pak_TO252AA)
      (libsource (lib device) (part D))
      (sheetpath (names /) (tstamps /))
      (tstamp 57EDFC0C))
    (comp (ref SW3:0)
      (value SW_MATIAS)
      (footprint mycomponents:SW_Matias_Quiet_LED_Hole)
      (libsource (lib device) (part SW_PUSH))
      (sheetpath (names /) (tstamps /))
      (tstamp 57EDFC12))
    (comp (ref D3:0)
      (value D)
      (footprint Diodes_SMD:D-Pak_TO252AA)
      (libsource (lib device) (part D))
      (sheetpath (names /) (tstamps /))
      (tstamp 57EDFC18))
    (comp (ref SW0:1)
      (value SW_MATIAS)
      (footprint mycomponents:SW_Matias_Quiet_LED_Hole)
      (libsource (lib device) (part SW_PUSH))
      (sheetpath (names /) (tstamps /))
      (tstamp 57EDFC1E))
    (comp (ref D0:1)
      (value D)
      (footprint Diodes_SMD:D-Pak_TO252AA)
      (libsource (lib device) (part D))
      (sheetpath (names /) (tstamps /))
      (tstamp 57EDFC24))
    (comp (ref SW1:1)
      (value SW_MATIAS)
      (footprint mycomponents:SW_Matias_Quiet_LED_Hole)
      (libsource (lib device) (part SW_PUSH))
      (sheetpath (names /) (tstamps /))
      (tstamp 57EDFC2A))
    (comp (ref D1:1)
      (value D)
      (footprint Diodes_SMD:D-Pak_TO252AA)
      (libsource (lib device) (part D))
      (sheetpath (names /) (tstamps /))
      (tstamp 57EDFC30))
    (comp (ref SW2:1)
      (value SW_MATIAS)
      (footprint mycomponents:SW_Matias_Quiet_LED_Hole)
      (libsource (lib device) (part SW_PUSH))
      (sheetpath (names /) (tstamps /))
      (tstamp 57EDFC36))
    (comp (ref D2:1)
      (value D)
      (footprint Diodes_SMD:D-Pak_TO252AA)
      (libsource (lib device) (part D))
      (sheetpath (names /) (tstamps /))
      (tstamp 57EDFC3C))
    (comp (ref SW3:1)
      (value SW_MATIAS)
      (footprint mycomponents:SW_Matias_Quiet_LED_Hole)
      (libsource (lib device) (part SW_PUSH))
      (sheetpath (names /) (tstamps /))
      (tstamp 57EDFC42))
    (comp (ref D3:1)
      (value D)
      (footprint Diodes_SMD:D-Pak_TO252AA)
      (libsource (lib device) (part D))
      (sheetpath (names /) (tstamps /))
      (tstamp 57EDFC48))
    (comp (ref SW0:2)
      (value SW_MATIAS)
      (footprint mycomponents:SW_Matias_Quiet_LED_Hole)
      (libsource (lib device) (part SW_PUSH))
      (sheetpath (names /) (tstamps /))
      (tstamp 57EDFC4E))
    (comp (ref D0:2)
      (value D)
      (footprint Diodes_SMD:D-Pak_TO252AA)
      (libsource (lib device) (part D))
      (sheetpath (names /) (tstamps /))
      (tstamp 57EDFC54))
    (comp (ref SW1:2)
      (value SW_MATIAS)
      (footprint mycomponents:SW_Matias_Quiet_LED_Hole)
      (libsource (lib device) (part SW_PUSH))
      (sheetpath (names /) (tstamps /))
      (tstamp 57EDFC5A))
    (comp (ref D1:2)
      (value D)
      (footprint Diodes_SMD:D-Pak_TO252AA)
      (libsource (lib device) (part D))
      (sheetpath (names /) (tstamps /))
      (tstamp 57EDFC60))
    (comp (ref SW2:2)
      (value SW_MATIAS)
      (footprint mycomponents:SW_Matias_Quiet_LED_Hole)
      (libsource (lib device) (part SW_PUSH))
      (sheetpath (names /) (tstamps /))
      (tstamp 57EDFC66))
    (comp (ref D2:2)
      (value D)
      (footprint Diodes_SMD:D-Pak_TO252AA)
      (libsource (lib device) (part D))
      (sheetpath (names /) (tstamps /))
      (tstamp 57EDFC6C))
    (comp (ref SW3:2)
      (value SW_MATIAS)
      (footprint mycomponents:SW_Matias_Quiet_LED_Hole)
      (libsource (lib device) (part SW_PUSH))
      (sheetpath (names /) (tstamps /))
      (tstamp 57EDFC72))
    (comp (ref D3:2)
      (value D)
      (footprint Diodes_SMD:D-Pak_TO252AA)
      (libsource (lib device) (part D))
      (sheetpath (names /) (tstamps /))
      (tstamp 57EDFC78))
    (comp (ref SW0:3)
      (value SW_MATIAS)
      (footprint mycomponents:SW_Matias_Quiet_LED_Hole)
      (libsource (lib device) (part SW_PUSH))
      (sheetpath (names /) (tstamps /))
      (tstamp 57EDFC7E))
    (comp (ref D0:3)
      (value D)
      (footprint Diodes_SMD:D-Pak_TO252AA)
      (libsource (lib device) (part D))
      (sheetpath (names /) (tstamps /))
      (tstamp 57EDFC84))
    (comp (ref SW1:3)
      (value SW_MATIAS)
      (footprint mycomponents:SW_Matias_Quiet_LED_Hole)
      (libsource (lib device) (part SW_PUSH))
      (sheetpath (names /) (tstamps /))
      (tstamp 57EDFC8A))
    (comp (ref D1:3)
      (value D)
      (footprint Diodes_SMD:D-Pak_TO252AA)
      (libsource (lib device) (part D))
      (sheetpath (names /) (tstamps /))
      (tstamp 57EDFC90))
    (comp (ref SW2:3)
      (value SW_MATIAS)
      (footprint mycomponents:SW_Matias_Quiet_LED_Hole)
      (libsource (lib device) (part SW_PUSH))
      (sheetpath (names /) (tstamps /))
      (tstamp 57EDFC96))
    (comp (ref D2:3)
      (value D)
      (footprint Diodes_SMD:D-Pak_TO252AA)
      (libsource (lib device) (part D))
      (sheetpath (names /) (tstamps /))
      (tstamp 57EDFC9C))
    (comp (ref SW3:3)
      (value SW_MATIAS)
      (footprint mycomponents:SW_Matias_Quiet_LED_Hole)
      (libsource (lib device) (part SW_PUSH))
      (sheetpath (names /) (tstamps /))
      (tstamp 57EDFCA2))
    (comp (ref D3:3)
      (value D)
      (footprint Diodes_SMD:D-Pak_TO252AA)
      (libsource (lib device) (part D))
      (sheetpath (names /) (tstamps /))
      (tstamp 57EDFCA8))
    (comp (ref D0:4)
      (value D)
      (footprint Diodes_SMD:D-Pak_TO252AA)
      (libsource (lib device) (part D))
      (sheetpath (names /) (tstamps /))
      (tstamp 57EDFCAE))
    (comp (ref SW1:4)
      (value SW_MATIAS)
      (footprint mycomponents:SW_Matias_Quiet_LED_Hole)
      (libsource (lib device) (part SW_PUSH))
      (sheetpath (names /) (tstamps /))
      (tstamp 57EDFCB4))
    (comp (ref D1:4)
      (value D)
      (footprint Diodes_SMD:D-Pak_TO252AA)
      (libsource (lib device) (part D))
      (sheetpath (names /) (tstamps /))
      (tstamp 57EDFCBA))
    (comp (ref SW2:4)
      (value SW_MATIAS)
      (footprint mycomponents:SW_Matias_Quiet_LED_Hole)
      (libsource (lib device) (part SW_PUSH))
      (sheetpath (names /) (tstamps /))
      (tstamp 57EDFCC0))
    (comp (ref D2:4)
      (value D)
      (footprint Diodes_SMD:D-Pak_TO252AA)
      (libsource (lib device) (part D))
      (sheetpath (names /) (tstamps /))
      (tstamp 57EDFCC6))
    (comp (ref SW3:4)
      (value SW_MATIAS)
      (footprint mycomponents:SW_Matias_Quiet_LED_Hole)
      (libsource (lib device) (part SW_PUSH))
      (sheetpath (names /) (tstamps /))
      (tstamp 57EDFCCC))
    (comp (ref D3:4)
      (value D)
      (footprint Diodes_SMD:D-Pak_TO252AA)
      (libsource (lib device) (part D))
      (sheetpath (names /) (tstamps /))
      (tstamp 57EDFCD2))
    (comp (ref SW0:5)
      (value SW_MATIAS)
      (footprint mycomponents:SW_Matias_Quiet_LED_Hole)
      (libsource (lib device) (part SW_PUSH))
      (sheetpath (names /) (tstamps /))
      (tstamp 57EDFCD8))
    (comp (ref D0:5)
      (value D)
      (footprint Diodes_SMD:D-Pak_TO252AA)
      (libsource (lib device) (part D))
      (sheetpath (names /) (tstamps /))
      (tstamp 57EDFCDE))
    (comp (ref SW1:5)
      (value SW_MATIAS)
      (footprint mycomponents:SW_Matias_Quiet_LED_Hole)
      (libsource (lib device) (part SW_PUSH))
      (sheetpath (names /) (tstamps /))
      (tstamp 57EDFCE4))
    (comp (ref D1:5)
      (value D)
      (footprint Diodes_SMD:D-Pak_TO252AA)
      (libsource (lib device) (part D))
      (sheetpath (names /) (tstamps /))
      (tstamp 57EDFCEA))
    (comp (ref SW2:5)
      (value SW_MATIAS)
      (footprint mycomponents:SW_Matias_Quiet_LED_Hole)
      (libsource (lib device) (part SW_PUSH))
      (sheetpath (names /) (tstamps /))
      (tstamp 57EDFCF0))
    (comp (ref D2:5)
      (value D)
      (footprint Diodes_SMD:D-Pak_TO252AA)
      (libsource (lib device) (part D))
      (sheetpath (names /) (tstamps /))
      (tstamp 57EDFCF6))
    (comp (ref SW3:5)
      (value SW_MATIAS)
      (footprint mycomponents:SW_Matias_Quiet_LED_Hole)
      (libsource (lib device) (part SW_PUSH))
      (sheetpath (names /) (tstamps /))
      (tstamp 57EDFCFC))
    (comp (ref D3:5)
      (value D)
      (footprint Diodes_SMD:D-Pak_TO252AA)
      (libsource (lib device) (part D))
      (sheetpath (names /) (tstamps /))
      (tstamp 57EDFD02))
    (comp (ref SW0:4)
      (value SW_MATIAS)
      (footprint mycomponents:SW_Matias_Quiet_LED_Hole)
      (libsource (lib device) (part SW_PUSH))
      (sheetpath (names /) (tstamps /))
      (tstamp 57EDFD74))
    (comp (ref R1)
      (value R)
      (footprint Resistors_ThroughHole:Resistor_Horizontal_RM7mm)
      (libsource (lib device) (part R))
      (sheetpath (names /) (tstamps /))
      (tstamp 57F408BC))
    (comp (ref R2)
      (value R)
      (footprint Resistors_ThroughHole:Resistor_Horizontal_RM7mm)
      (libsource (lib device) (part R))
      (sheetpath (names /) (tstamps /))
      (tstamp 57F4321C))
    (comp (ref R3)
      (value R)
      (footprint Resistors_ThroughHole:Resistor_Horizontal_RM7mm)
      (libsource (lib device) (part R))
      (sheetpath (names /) (tstamps /))
      (tstamp 57F43342))
    (comp (ref P4)
      (value CONN_01X01)
      (footprint Connect:1pin)
      (libsource (lib conn) (part CONN_01X01))
      (sheetpath (names /) (tstamps /))
      (tstamp 57FDE9D6))
    (comp (ref P5)
      (value CONN_01X01)
      (footprint Connect:1pin)
      (libsource (lib conn) (part CONN_01X01))
      (sheetpath (names /) (tstamps /))
      (tstamp 57FDEDFD))
    (comp (ref P6)
      (value CONN_01X01)
      (footprint Connect:1pin)
      (libsource (lib conn) (part CONN_01X01))
      (sheetpath (names /) (tstamps /))
      (tstamp 57FDF1FF))
    (comp (ref P8)
      (value CONN_01X01)
      (footprint Connect:1pin)
      (libsource (lib conn) (part CONN_01X01))
      (sheetpath (names /) (tstamps /))
      (tstamp 57FDF51D))
    (comp (ref P7)
      (value CONN_01X01)
      (footprint Connect:1pin)
      (libsource (lib conn) (part CONN_01X01))
      (sheetpath (names /) (tstamps /))
      (tstamp 57FDF205))
    (comp (ref U1)
      (value Teensy2.0)
      (footprint mycomponents:Teensy2)
      (libsource (lib boomerangkeyboard-cache) (part Teensy2.0))
      (sheetpath (names /) (tstamps /))
      (tstamp 57EF177B))
    (comp (ref P1)
      (value USB_B)
      (footprint Connect:USB_Mini-B)
      (libsource (lib conn) (part USB_B))
      (sheetpath (names /) (tstamps /))
      (tstamp 580186C8))
    (comp (ref SWM1)
      (value SW_SPDT_Small)
      (footprint Buttons_Switches_ThroughHole:SW_PUSH_SMALL)
      (libsource (lib device) (part SW_SPDT_Small))
      (sheetpath (names /) (tstamps /))
      (tstamp 5801CD0D))
    (comp (ref SWM2)
      (value SW_SPDT_Small)
      (footprint Buttons_Switches_ThroughHole:SW_PUSH_SMALL)
      (libsource (lib device) (part SW_SPDT_Small))
      (sheetpath (names /) (tstamps /))
      (tstamp 5801D899))
    (comp (ref SWM3)
      (value SW_SPDT_Small)
      (footprint Buttons_Switches_ThroughHole:SW_PUSH_SMALL)
      (libsource (lib device) (part SW_SPDT_Small))
      (sheetpath (names /) (tstamps /))
      (tstamp 5801DB0B))
    (comp (ref P2)
      (value CONN_01X05)
      (footprint Pin_Headers:Pin_Header_Angled_1x05)
      (libsource (lib conn) (part CONN_01X05))
      (sheetpath (names /) (tstamps /))
      (tstamp 58020939))
    (comp (ref P3)
      (value CONN_01X05)
      (footprint Socket_Strips:Socket_Strip_Angled_1x05)
      (libsource (lib conn) (part CONN_01X05))
      (sheetpath (names /) (tstamps /))
      (tstamp 58030FDA))
    (comp (ref PUSB1)
      (value CONN_01X01)
      (footprint Connect:1pin)
      (libsource (lib conn) (part CONN_01X01))
      (sheetpath (names /) (tstamps /))
      (tstamp 58046C97))
    (comp (ref PUSB2)
      (value CONN_01X01)
      (footprint Connect:1pin)
      (libsource (lib conn) (part CONN_01X01))
      (sheetpath (names /) (tstamps /))
      (tstamp 5804876B))
    (comp (ref PUSB3)
      (value CONN_01X01)
      (footprint Connect:1pin)
      (libsource (lib conn) (part CONN_01X01))
      (sheetpath (names /) (tstamps /))
      (tstamp 58048CE8))
    (comp (ref PUSB4)
      (value CONN_01X01)
      (footprint Connect:1pin)
      (libsource (lib conn) (part CONN_01X01))
      (sheetpath (names /) (tstamps /))
      (tstamp 5804902C))
    (comp (ref PUSB5)
      (value CONN_01X01)
      (footprint Connect:1pin)
      (libsource (lib conn) (part CONN_01X01))
      (sheetpath (names /) (tstamps /))
      (tstamp 580491A7))
    (comp (ref P9)
      (value CONN_01X01)
      (footprint Connect:1pin)
      (libsource (lib conn) (part CONN_01X01))
      (sheetpath (names /) (tstamps /))
      (tstamp 5805281D))
    (comp (ref P10)
      (value CONN_01X01)
      (footprint Connect:1pin)
      (libsource (lib conn) (part CONN_01X01))
      (sheetpath (names /) (tstamps /))
      (tstamp 58052B7F))
    (comp (ref P11)
      (value CONN_01X01)
      (footprint Connect:1pin)
      (libsource (lib conn) (part CONN_01X01))
      (sheetpath (names /) (tstamps /))
      (tstamp 58052D0B))
    (comp (ref C1)
      (value C)
      (footprint Capacitors_ThroughHole:C_Rect_L7_W2.5_P5)
      (libsource (lib device) (part C))
      (sheetpath (names /) (tstamps /))
      (tstamp 58092366))
    (comp (ref C2)
      (value CP_Small)
      (footprint Capacitors_Tantalum_SMD:TantalC_SizeR_EIA-2012)
      (libsource (lib device) (part CP_Small))
      (sheetpath (names /) (tstamps /))
      (tstamp 580930EC))
    (comp (ref R4)
      (value R)
      (footprint Resistors_ThroughHole:Resistor_Horizontal_RM7mm)
      (libsource (lib device) (part R))
      (sheetpath (names /) (tstamps /))
      (tstamp 580AAEF1))
    (comp (ref R5)
      (value R)
      (footprint Resistors_ThroughHole:Resistor_Horizontal_RM7mm)
      (libsource (lib device) (part R))
      (sheetpath (names /) (tstamps /))
      (tstamp 580AB1BB))
    (comp (ref U2)
      (value MCP23018)
      (footprint mycomponents:MCP23018)
      (libsource (lib boomerangkeyboard-cache) (part MCP23018))
      (sheetpath (names /) (tstamps /))
      (tstamp 57FD7EB8)))
  (libparts
    (libpart (lib device) (part C)
      (description "Unpolarized capacitor")
      (footprints
        (fp C?)
        (fp C_????_*)
        (fp C_????)
        (fp SMD*_c)
        (fp Capacitor*))
      (fields
        (field (name Reference) C)
        (field (name Value) C))
      (pins
        (pin (num 1) (name ~) (type passive))
        (pin (num 2) (name ~) (type passive))))
    (libpart (lib conn) (part CONN_01X01)
      (description "Connector, single row, 01x01")
      (footprints
        (fp Pin_Header_Straight_1X01)
        (fp Pin_Header_Angled_1X01)
        (fp Socket_Strip_Straight_1X01)
        (fp Socket_Strip_Angled_1X01))
      (fields
        (field (name Reference) P)
        (field (name Value) CONN_01X01))
      (pins
        (pin (num 1) (name P1) (type passive))))
    (libpart (lib conn) (part CONN_01X05)
      (description "Connector, single row, 01x05")
      (footprints
        (fp Pin_Header_Straight_1X05)
        (fp Pin_Header_Angled_1X05)
        (fp Socket_Strip_Straight_1X05)
        (fp Socket_Strip_Angled_1X05))
      (fields
        (field (name Reference) P)
        (field (name Value) CONN_01X05))
      (pins
        (pin (num 1) (name P1) (type passive))
        (pin (num 2) (name P2) (type passive))
        (pin (num 3) (name P3) (type passive))
        (pin (num 4) (name P4) (type passive))
        (pin (num 5) (name P5) (type passive))))
    (libpart (lib device) (part CP_Small)
      (description "Polarised capacitor")
      (footprints
        (fp CP*)
        (fp C_Axial*)
        (fp C_Radial*)
        (fp TantalC*)
        (fp C*elec)
        (fp c_elec*)
        (fp SMD*_Pol))
      (fields
        (field (name Reference) C)
        (field (name Value) CP_Small))
      (pins
        (pin (num 1) (name ~) (type passive))
        (pin (num 2) (name ~) (type passive))))
    (libpart (lib device) (part D)
      (description Diode)
      (footprints
        (fp Diode_*)
        (fp D-Pak_TO252AA)
        (fp *SingleDiode)
        (fp *_Diode_*)
        (fp *SingleDiode*)
        (fp D_*))
      (fields
        (field (name Reference) D)
        (field (name Value) D))
      (pins
        (pin (num 1) (name K) (type passive))
        (pin (num 2) (name A) (type passive))))
    (libpart (lib boomerangkeyboard-cache) (part MCP23018)
      (description "16-Bit I/O Expander with I²C Interface (PDIP/SOIC/SSOP)")
      (docs http://ww1.microchip.com/downloads/en/DeviceDoc/20001952C.pdf)
      (footprints
        (fp DIP-28_W7.62mm*)
        (fp SOIC-28)
        (fp SSOP-28))
      (fields
        (field (name Reference) U)
        (field (name Value) MCP23018))
      (pins
        (pin (num 1) (name VSS) (type power_out))
        (pin (num 2) (name NC) (type input))
        (pin (num 3) (name GPB0) (type BiDi))
        (pin (num 4) (name GPB1) (type BiDi))
        (pin (num 5) (name GPB2) (type BiDi))
        (pin (num 6) (name GPB3) (type BiDi))
        (pin (num 7) (name GPB4) (type BiDi))
        (pin (num 8) (name GPB5) (type BiDi))
        (pin (num 9) (name GPB6) (type BiDi))
        (pin (num 10) (name GPB7) (type BiDi))
        (pin (num 11) (name VDD) (type BiDi))
        (pin (num 12) (name SCL) (type BiDi))
        (pin (num 13) (name SDA) (type BiDi))
        (pin (num 14) (name NC) (type BiDi))
        (pin (num 15) (name ADDR) (type input))
        (pin (num 16) (name ~RESET) (type input))
        (pin (num 17) (name NC) (type BiDi))
        (pin (num 18) (name INTB) (type BiDi))
        (pin (num 19) (name INTA) (type BiDi))
        (pin (num 20) (name GPA0) (type BiDi))
        (pin (num 21) (name GPA1) (type BiDi))
        (pin (num 22) (name GPA2) (type BiDi))
        (pin (num 23) (name GPA3) (type BiDi))
        (pin (num 24) (name GPA4) (type BiDi))
        (pin (num 25) (name GPA5) (type BiDi))
        (pin (num 26) (name GPA6) (type BiDi))
        (pin (num 27) (name GPA7) (type BiDi))
        (pin (num 28) (name NC) (type BiDi))))
    (libpart (lib device) (part R)
      (description Resistor)
      (footprints
        (fp R_*)
        (fp Resistor_*))
      (fields
        (field (name Reference) R)
        (field (name Value) R))
      (pins
        (pin (num 1) (name ~) (type passive))
        (pin (num 2) (name ~) (type passive))))
    (libpart (lib device) (part SW_PUSH)
      (description "Push button switch, normally open, two pins")
      (fields
        (field (name Reference) SW)
        (field (name Value) SW_PUSH))
      (pins
        (pin (num 1) (name 1) (type passive))
        (pin (num 2) (name 2) (type passive))))
    (libpart (lib device) (part SW_SPDT_Small)
      (description "Switch, single pole double throw, small symbol")
      (fields
        (field (name Reference) SW)
        (field (name Value) SW_SPDT_Small))
      (pins
        (pin (num 1) (name 1) (type passive))
        (pin (num 2) (name 2) (type passive))
        (pin (num 3) (name 3) (type passive))))
    (libpart (lib boomerangkeyboard-cache) (part Teensy2.0)
      (fields
        (field (name Reference) U1)
        (field (name Value) Teensy2.0))
      (pins
        (pin (num 1) (name GND) (type input))
        (pin (num 2) (name PB0) (type input))
        (pin (num 3) (name PB1) (type input))
        (pin (num 4) (name PB2) (type input))
        (pin (num 5) (name PB3) (type input))
        (pin (num 6) (name PB7) (type input))
        (pin (num 7) (name PD0) (type input))
        (pin (num 8) (name PD1) (type input))
        (pin (num 9) (name PD2) (type input))
        (pin (num 10) (name PD3) (type input))
        (pin (num 11) (name PC6) (type input))
        (pin (num 12) (name PC7) (type input))
        (pin (num 13) (name PD5) (type input))
        (pin (num 14) (name VCC) (type output))
        (pin (num 15) (name GND) (type input))
        (pin (num 16) (name RST) (type input))
        (pin (num 17) (name PD4) (type input))
        (pin (num 18) (name PD6) (type input))
        (pin (num 19) (name PD7) (type input))
        (pin (num 20) (name PB4) (type input))
        (pin (num 21) (name PB5) (type input))
        (pin (num 22) (name PB6) (type input))
        (pin (num 23) (name PF7) (type input))
        (pin (num 24) (name PF6) (type input))
        (pin (num 25) (name PF5) (type input))
        (pin (num 26) (name PF4) (type input))
        (pin (num 27) (name PF1) (type input))
        (pin (num 28) (name PF0) (type input))
        (pin (num 29) (name VCC) (type output))
        (pin (num 30) (name AREF) (type input))
        (pin (num 31) (name PE6) (type input))))
    (libpart (lib conn) (part USB_B)
      (description "USB Type B connector")
      (footprints
        (fp USB*))
      (fields
        (field (name Reference) P)
        (field (name Value) USB_B))
      (pins
        (pin (num 1) (name VCC) (type power_out))
        (pin (num 2) (name D-) (type passive))
        (pin (num 3) (name D+) (type passive))
        (pin (num 4) (name GND) (type power_in))
        (pin (num 5) (name shield) (type passive)))))
  (libraries
    (library (logical device)
      (uri /usr/share/kicad/library/device.lib))
    (library (logical conn)
      (uri /usr/share/kicad/library/conn.lib))
    (library (logical boomerangkeyboard-cache)
      (uri /home/tye/workspace/boomerangkeyboard/boomerangkeyboard-cache.lib)))
  (nets
    (net (code 1) (name "Net-(D0:5-Pad2)")
      (node (ref SW0:5) (pin 2))
      (node (ref D0:5) (pin 2)))
    (net (code 2) (name "Net-(D1:4-Pad2)")
      (node (ref D1:4) (pin 2))
      (node (ref SW1:4) (pin 2)))
    (net (code 3) (name "Net-(D2:4-Pad2)")
      (node (ref D2:4) (pin 2))
      (node (ref SW2:4) (pin 2)))
    (net (code 4) (name "Net-(D3:4-Pad2)")
      (node (ref D3:4) (pin 2))
      (node (ref SW3:4) (pin 2)))
    (net (code 5) (name /COL5)
      (node (ref D1:5) (pin 1))
      (node (ref D0:5) (pin 1))
      (node (ref D3:5) (pin 1))
      (node (ref U2) (pin 25))
      (node (ref D2:5) (pin 1)))
    (net (code 6) (name "Net-(D1:5-Pad2)")
      (node (ref D1:5) (pin 2))
      (node (ref SW1:5) (pin 2)))
    (net (code 7) (name "Net-(D2:5-Pad2)")
      (node (ref SW2:5) (pin 2))
      (node (ref D2:5) (pin 2)))
    (net (code 8) (name "Net-(D3:5-Pad2)")
      (node (ref D3:5) (pin 2))
      (node (ref SW3:5) (pin 2)))
    (net (code 9) (name "Net-(D3:2-Pad2)")
      (node (ref D3:2) (pin 2))
      (node (ref SW3:2) (pin 2)))
    (net (code 10) (name "Net-(D0:3-Pad2)")
      (node (ref SW0:3) (pin 2))
      (node (ref D0:3) (pin 2)))
    (net (code 11) (name /COL3)
      (node (ref U2) (pin 23))
      (node (ref D1:3) (pin 1))
      (node (ref D0:3) (pin 1))
      (node (ref D2:3) (pin 1))
      (node (ref D3:3) (pin 1)))
    (net (code 12) (name "Net-(D1:3-Pad2)")
      (node (ref D1:3) (pin 2))
      (node (ref SW1:3) (pin 2)))
    (net (code 13) (name "Net-(D2:3-Pad2)")
      (node (ref SW2:3) (pin 2))
      (node (ref D2:3) (pin 2)))
    (net (code 14) (name "Net-(D3:3-Pad2)")
      (node (ref SW3:3) (pin 2))
      (node (ref D3:3) (pin 2)))
    (net (code 15) (name "Net-(D0:4-Pad2)")
      (node (ref D0:4) (pin 2))
      (node (ref SW0:4) (pin 2)))
    (net (code 16) (name /COL4)
      (node (ref U2) (pin 24))
      (node (ref D3:4) (pin 1))
      (node (ref D2:4) (pin 1))
      (node (ref D0:4) (pin 1))
      (node (ref D1:4) (pin 1)))
    (net (code 17) (name "Net-(D2:2-Pad2)")
      (node (ref D2:2) (pin 2))
      (node (ref SW2:2) (pin 2)))
    (net (code 18) (name "Net-(D0:11-Pad2)")
      (node (ref D0:11) (pin 2))
      (node (ref SW0:11) (pin 2)))
    (net (code 19) (name /COL11)
      (node (ref U1) (pin 10))
      (node (ref D1:11) (pin 1))
      (node (ref D2:11) (pin 1))
      (node (ref D0:11) (pin 1))
      (node (ref D3:11) (pin 1)))
    (net (code 20) (name "Net-(D1:11-Pad2)")
      (node (ref D1:11) (pin 2))
      (node (ref SW1:11) (pin 2)))
    (net (code 21) (name "Net-(D2:11-Pad2)")
      (node (ref D2:11) (pin 2))
      (node (ref SW2:11) (pin 2)))
    (net (code 22) (name "Net-(D3:11-Pad2)")
      (node (ref D3:11) (pin 2))
      (node (ref SW3:11) (pin 2)))
    (net (code 23) (name "Net-(D3:1-Pad2)")
      (node (ref D3:1) (pin 2))
      (node (ref SW3:1) (pin 2)))
    (net (code 24) (name "Net-(D0:1-Pad2)")
      (node (ref D0:1) (pin 2))
      (node (ref SW0:1) (pin 2)))
    (net (code 25) (name /COL1)
      (node (ref U2) (pin 21))
      (node (ref D3:1) (pin 1))
      (node (ref D2:1) (pin 1))
      (node (ref D1:1) (pin 1))
      (node (ref D0:1) (pin 1)))
    (net (code 26) (name "Net-(D1:1-Pad2)")
      (node (ref D1:1) (pin 2))
      (node (ref SW1:1) (pin 2)))
    (net (code 27) (name "Net-(D2:1-Pad2)")
      (node (ref D2:1) (pin 2))
      (node (ref SW2:1) (pin 2)))
    (net (code 28) (name "Net-(D0:2-Pad2)")
      (node (ref SW0:2) (pin 2))
      (node (ref D0:2) (pin 2)))
    (net (code 29) (name /COL2)
      (node (ref D0:2) (pin 1))
      (node (ref D1:2) (pin 1))
      (node (ref D3:2) (pin 1))
      (node (ref U2) (pin 22))
      (node (ref D2:2) (pin 1)))
    (net (code 30) (name "Net-(D1:2-Pad2)")
      (node (ref SW1:2) (pin 2))
      (node (ref D1:2) (pin 2)))
    (net (code 31) (name "Net-(D1:0-Pad2)")
      (node (ref D1:0) (pin 2))
      (node (ref SW1:0) (pin 2)))
    (net (code 32) (name "Net-(D0:0-Pad2)")
      (node (ref SW0:0) (pin 2))
      (node (ref D0:0) (pin 2)))
    (net (code 33) (name /COL0)
      (node (ref D3:0) (pin 1))
      (node (ref D2:0) (pin 1))
      (node (ref D1:0) (pin 1))
      (node (ref D0:0) (pin 1))
      (node (ref U2) (pin 20)))
    (net (code 34) (name "Net-(D2:0-Pad2)")
      (node (ref D2:0) (pin 2))
      (node (ref SW2:0) (pin 2)))
    (net (code 35) (name "Net-(D3:0-Pad2)")
      (node (ref SW3:0) (pin 2))
      (node (ref D3:0) (pin 2)))
    (net (code 37) (name "Net-(P9-Pad1)")
      (node (ref P9) (pin 1))
      (node (ref SWM1) (pin 2)))
    (net (code 38) (name "Net-(P10-Pad1)")
      (node (ref P10) (pin 1))
      (node (ref SWM2) (pin 2)))
    (net (code 39) (name "Net-(P11-Pad1)")
      (node (ref SWM3) (pin 2))
      (node (ref P11) (pin 1)))
    (net (code 40) (name "Net-(P2-Pad5)")
      (node (ref P2) (pin 5)))
    (net (code 41) (name "Net-(SWM3-Pad3)")
      (node (ref SWM3) (pin 3)))
    (net (code 42) (name "Net-(P3-Pad5)")
      (node (ref P3) (pin 5)))
    (net (code 43) (name "Net-(C1-Pad2)")
      (node (ref PUSB1) (pin 1))
      (node (ref P1) (pin 1))
      (node (ref C1) (pin 2)))
    (net (code 44) (name "Net-(P1-Pad2)")
      (node (ref P1) (pin 2))
      (node (ref PUSB2) (pin 1)))
    (net (code 45) (name "Net-(P1-Pad3)")
      (node (ref P1) (pin 3))
      (node (ref PUSB3) (pin 1)))
    (net (code 46) (name "Net-(P1-Pad5)")
      (node (ref P1) (pin 5))
      (node (ref PUSB5) (pin 1)))
    (net (code 47) (name "Net-(SWM2-Pad3)")
      (node (ref SWM2) (pin 3)))
    (net (code 48) (name "Net-(P3-Pad4)")
      (node (ref U2) (pin 1))
      (node (ref U2) (pin 15))
      (node (ref P3) (pin 4)))
    (net (code 49) (name "Net-(U2-Pad26)")
      (node (ref U2) (pin 26)))
    (net (code 50) (name "Net-(U2-Pad17)")
      (node (ref U2) (pin 17)))
    (net (code 51) (name "Net-(U2-Pad27)")
      (node (ref U2) (pin 27)))
    (net (code 52) (name "Net-(U2-Pad18)")
      (node (ref U2) (pin 18)))
    (net (code 53) (name "Net-(U2-Pad28)")
      (node (ref U2) (pin 28)))
    (net (code 54) (name "Net-(U2-Pad19)")
      (node (ref U2) (pin 19)))
    (net (code 55) (name /ROW1M)
      (node (ref U2) (pin 7))
      (node (ref SW1:0) (pin 1))
      (node (ref SW1:4) (pin 1))
      (node (ref SW1:2) (pin 1))
      (node (ref SW1:5) (pin 1))
      (node (ref SW1:1) (pin 1))
      (node (ref SW1:3) (pin 1)))
    (net (code 56) (name "Net-(SWM1-Pad3)")
      (node (ref SWM1) (pin 3)))
    (net (code 57) (name "Net-(U2-Pad2)")
      (node (ref U2) (pin 2)))
    (net (code 58) (name "Net-(U2-Pad3)")
      (node (ref U2) (pin 3)))
    (net (code 59) (name "Net-(U2-Pad4)")
      (node (ref U2) (pin 4)))
    (net (code 60) (name /ROW3M)
      (node (ref SW3:5) (pin 1))
      (node (ref SW3:3) (pin 1))
      (node (ref SW3:1) (pin 1))
      (node (ref SW3:2) (pin 1))
      (node (ref SW3:4) (pin 1))
      (node (ref SW3:0) (pin 1))
      (node (ref U2) (pin 5)))
    (net (code 61) (name /ROW2M)
      (node (ref SW2:2) (pin 1))
      (node (ref SW2:3) (pin 1))
      (node (ref U2) (pin 6))
      (node (ref SW2:4) (pin 1))
      (node (ref SW2:5) (pin 1))
      (node (ref SW2:0) (pin 1))
      (node (ref SW2:1) (pin 1)))
    (net (code 62) (name /ROW0M)
      (node (ref SW0:3) (pin 1))
      (node (ref U2) (pin 8))
      (node (ref SW0:1) (pin 1))
      (node (ref SW0:4) (pin 1))
      (node (ref SW0:2) (pin 1))
      (node (ref SW0:5) (pin 1))
      (node (ref SW0:0) (pin 1)))
    (net (code 63) (name "Net-(U2-Pad9)")
      (node (ref U2) (pin 9)))
    (net (code 64) (name "Net-(U2-Pad10)")
      (node (ref U2) (pin 10)))
    (net (code 65) (name "Net-(U2-Pad14)")
      (node (ref U2) (pin 14)))
    (net (code 66) (name "Net-(P2-Pad4)")
      (node (ref U1) (pin 1))
      (node (ref P2) (pin 4)))
    (net (code 67) (name "Net-(P2-Pad2)")
      (node (ref P2) (pin 2))
      (node (ref U1) (pin 7)))
    (net (code 68) (name /TP2)
      (node (ref U1) (pin 17))
      (node (ref R3) (pin 2))
      (node (ref P8) (pin 1)))
    (net (code 69) (name "Net-(P2-Pad1)")
      (node (ref U1) (pin 29))
      (node (ref P2) (pin 1)))
    (net (code 70) (name "Net-(P3-Pad2)")
      (node (ref R4) (pin 2))
      (node (ref P3) (pin 2))
      (node (ref U2) (pin 12)))
    (net (code 71) (name "Net-(P3-Pad3)")
      (node (ref R5) (pin 2))
      (node (ref P3) (pin 3))
      (node (ref U2) (pin 13)))
    (net (code 72) (name "Net-(P2-Pad3)")
      (node (ref P2) (pin 3))
      (node (ref U1) (pin 8)))
    (net (code 73) (name "Net-(D2:7-Pad2)")
      (node (ref D2:7) (pin 2))
      (node (ref SW2:7) (pin 2)))
    (net (code 74) (name "Net-(D3:7-Pad2)")
      (node (ref SW3:7) (pin 2))
      (node (ref D3:7) (pin 2)))
    (net (code 75) (name "Net-(D0:8-Pad2)")
      (node (ref D0:8) (pin 2))
      (node (ref SW0:8) (pin 2)))
    (net (code 76) (name "Net-(D1:8-Pad2)")
      (node (ref D1:8) (pin 2))
      (node (ref SW1:8) (pin 2)))
    (net (code 77) (name "Net-(D2:8-Pad2)")
      (node (ref D2:8) (pin 2))
      (node (ref SW2:8) (pin 2)))
    (net (code 78) (name /COL8)
      (node (ref D1:8) (pin 1))
      (node (ref U1) (pin 4))
      (node (ref D0:8) (pin 1))
      (node (ref D3:8) (pin 1))
      (node (ref D2:8) (pin 1)))
    (net (code 79) (name "Net-(D3:8-Pad2)")
      (node (ref D3:8) (pin 2))
      (node (ref SW3:8) (pin 2)))
    (net (code 80) (name "Net-(D3:6-Pad2)")
      (node (ref SW3:6) (pin 2))
      (node (ref D3:6) (pin 2)))
    (net (code 81) (name "Net-(D0:6-Pad2)")
      (node (ref D0:6) (pin 2))
      (node (ref SW0:6) (pin 2)))
    (net (code 82) (name "Net-(D1:6-Pad2)")
      (node (ref D1:6) (pin 2))
      (node (ref SW1:6) (pin 2)))
    (net (code 83) (name "Net-(D2:6-Pad2)")
      (node (ref D2:6) (pin 2))
      (node (ref SW2:6) (pin 2)))
    (net (code 84) (name /COL6)
      (node (ref D0:6) (pin 1))
      (node (ref D1:6) (pin 1))
      (node (ref D2:6) (pin 1))
      (node (ref D3:6) (pin 1))
      (node (ref U1) (pin 2)))
    (net (code 85) (name /ROW0R)
      (node (ref SW0:8) (pin 1))
      (node (ref U1) (pin 23))
      (node (ref SW0:6) (pin 1))
      (node (ref SW0:11) (pin 1))
      (node (ref SW0:7) (pin 1))
      (node (ref SW0:9) (pin 1))
      (node (ref SW0:10) (pin 1)))
    (net (code 86) (name "Net-(D0:7-Pad2)")
      (node (ref D0:7) (pin 2))
      (node (ref SW0:7) (pin 2)))
    (net (code 87) (name /COL7)
      (node (ref U1) (pin 3))
      (node (ref D1:7) (pin 1))
      (node (ref D3:7) (pin 1))
      (node (ref D2:7) (pin 1))
      (node (ref D0:7) (pin 1)))
    (net (code 88) (name "Net-(D1:7-Pad2)")
      (node (ref SW1:7) (pin 2))
      (node (ref D1:7) (pin 2)))
    (net (code 89) (name "Net-(D3:10-Pad2)")
      (node (ref D3:10) (pin 2))
      (node (ref SW3:10) (pin 2)))
    (net (code 90) (name "Net-(D0:10-Pad2)")
      (node (ref D0:10) (pin 2))
      (node (ref SW0:10) (pin 2)))
    (net (code 91) (name "Net-(D3:9-Pad2)")
      (node (ref SW3:9) (pin 2))
      (node (ref D3:9) (pin 2)))
    (net (code 92) (name "Net-(D0:9-Pad2)")
      (node (ref SW0:9) (pin 2))
      (node (ref D0:9) (pin 2)))
    (net (code 93) (name "Net-(D1:9-Pad2)")
      (node (ref D1:9) (pin 2))
      (node (ref SW1:9) (pin 2)))
    (net (code 94) (name "Net-(D2:9-Pad2)")
      (node (ref SW2:9) (pin 2))
      (node (ref D2:9) (pin 2)))
    (net (code 95) (name /COL9)
      (node (ref U1) (pin 5))
      (node (ref D1:9) (pin 1))
      (node (ref D2:9) (pin 1))
      (node (ref D3:9) (pin 1))
      (node (ref D0:9) (pin 1)))
    (net (code 96) (name /ROW1R)
      (node (ref SW1:11) (pin 1))
      (node (ref SW1:8) (pin 1))
      (node (ref SW1:9) (pin 1))
      (node (ref SW1:6) (pin 1))
      (node (ref SW1:7) (pin 1))
      (node (ref U1) (pin 24))
      (node (ref SW1:10) (pin 1)))
    (net (code 97) (name "Net-(D1:10-Pad2)")
      (node (ref SW1:10) (pin 2))
      (node (ref D1:10) (pin 2)))
    (net (code 98) (name /ROW2R)
      (node (ref SW2:6) (pin 1))
      (node (ref SW2:8) (pin 1))
      (node (ref SW2:10) (pin 1))
      (node (ref SW2:11) (pin 1))
      (node (ref SW2:9) (pin 1))
      (node (ref U1) (pin 25))
      (node (ref SW2:7) (pin 1)))
    (net (code 99) (name /COL10)
      (node (ref D2:10) (pin 1))
      (node (ref U1) (pin 9))
      (node (ref D1:10) (pin 1))
      (node (ref D0:10) (pin 1))
      (node (ref D3:10) (pin 1)))
    (net (code 100) (name "Net-(D2:10-Pad2)")
      (node (ref SW2:10) (pin 2))
      (node (ref D2:10) (pin 2)))
    (net (code 101) (name /ROW3R)
      (node (ref SW3:9) (pin 1))
      (node (ref SW3:10) (pin 1))
      (node (ref SW3:6) (pin 1))
      (node (ref SW3:8) (pin 1))
      (node (ref SW3:7) (pin 1))
      (node (ref SW3:11) (pin 1))
      (node (ref U1) (pin 26)))
    (net (code 102) (name "Net-(U1-Pad30)")
      (node (ref U1) (pin 30)))
    (net (code 103) (name /TP1)
      (node (ref U1) (pin 13))
      (node (ref R2) (pin 1))
      (node (ref P6) (pin 1)))
    (net (code 104) (name "Net-(U1-Pad20)")
      (node (ref U1) (pin 20)))
    (net (code 105) (name "Net-(U1-Pad31)")
      (node (ref U1) (pin 31)))
    (net (code 106) (name GND)
      (node (ref R1) (pin 1))
      (node (ref U2) (pin 16))
      (node (ref SWM3) (pin 1))
      (node (ref U1) (pin 15))
      (node (ref SWM1) (pin 1))
      (node (ref PUSB4) (pin 1))
      (node (ref P4) (pin 1))
      (node (ref P1) (pin 4))
      (node (ref SWM2) (pin 1))
      (node (ref C1) (pin 1))
      (node (ref R5) (pin 1))
      (node (ref R4) (pin 1))
      (node (ref U2) (pin 11))
      (node (ref P3) (pin 1)))
    (net (code 107) (name "Net-(C2-Pad1)")
      (node (ref R1) (pin 2))
      (node (ref C2) (pin 1))
      (node (ref P5) (pin 1)))
    (net (code 108) (name /VCC)
      (node (ref U1) (pin 14))
      (node (ref P7) (pin 1))
      (node (ref R3) (pin 1))
      (node (ref C2) (pin 2))
      (node (ref R2) (pin 2)))
    (net (code 109) (name "Net-(U1-Pad11)")
      (node (ref U1) (pin 11)))
    (net (code 110) (name "Net-(U1-Pad21)")
      (node (ref U1) (pin 21)))
    (net (code 111) (name "Net-(U1-Pad12)")
      (node (ref U1) (pin 12)))
    (net (code 112) (name "Net-(U1-Pad22)")
      (node (ref U1) (pin 22)))
    (net (code 113) (name "Net-(U1-Pad16)")
      (node (ref U1) (pin 16)))
    (net (code 114) (name "Net-(U1-Pad27)")
      (node (ref U1) (pin 27)))
    (net (code 115) (name "Net-(U1-Pad18)")
      (node (ref U1) (pin 18)))
    (net (code 116) (name "Net-(U1-Pad28)")
      (node (ref U1) (pin 28)))
    (net (code 117) (name "Net-(U1-Pad19)")
      (node (ref U1) (pin 19)))
    (net (code 118) (name "Net-(U1-Pad6)")
      (node (ref U1) (pin 6)))))