(module MCP23018 (layer F.Cu) (tedit 57F950EC)
  (fp_text reference U2 (at -0.635 -1.905 90) (layer F.SilkS)
    (effects (font (size 1 1) (thickness 0.15)))
  )
  (fp_text value MCP23018 (at -2.54 -1.905 90) (layer F.Fab)
    (effects (font (size 1 1) (thickness 0.15)))
  )
  (fp_line (start -6.35 16.51) (end -6.35 -19.05) (layer F.SilkS) (width 0.15))
  (fp_line (start 3.81 16.51) (end -6.35 16.51) (layer F.SilkS) (width 0.15))
  (fp_line (start 3.81 -19.05) (end 3.81 16.51) (layer F.SilkS) (width 0.15))
  (fp_line (start -6.35 -19.05) (end 3.81 -19.05) (layer F.SilkS) (width 0.15))
  (pad 28 thru_hole circle (at 2.54 -17.78) (size 1.524 1.524) (drill 0.762) (layers *.Cu *.Mask))
  (pad 27 thru_hole circle (at 2.54 -15.24) (size 1.524 1.524) (drill 0.762) (layers *.Cu *.Mask))
  (pad 26 thru_hole circle (at 2.54 -12.7) (size 1.524 1.524) (drill 0.762) (layers *.Cu *.Mask))
  (pad 25 thru_hole circle (at 2.54 -10.16) (size 1.524 1.524) (drill 0.762) (layers *.Cu *.Mask))
  (pad 24 thru_hole circle (at 2.54 -7.62) (size 1.524 1.524) (drill 0.762) (layers *.Cu *.Mask))
  (pad 23 thru_hole circle (at 2.54 -5.08) (size 1.524 1.524) (drill 0.762) (layers *.Cu *.Mask))
  (pad 22 thru_hole circle (at 2.54 -2.54) (size 1.524 1.524) (drill 0.762) (layers *.Cu *.Mask))
  (pad 21 thru_hole circle (at 2.54 0) (size 1.524 1.524) (drill 0.762) (layers *.Cu *.Mask))
  (pad 20 thru_hole circle (at 2.54 2.54) (size 1.524 1.524) (drill 0.762) (layers *.Cu *.Mask))
  (pad 19 thru_hole circle (at 2.54 5.08) (size 1.524 1.524) (drill 0.762) (layers *.Cu *.Mask))
  (pad 18 thru_hole circle (at 2.54 7.62) (size 1.524 1.524) (drill 0.762) (layers *.Cu *.Mask))
  (pad 17 thru_hole circle (at 2.54 10.16) (size 1.524 1.524) (drill 0.762) (layers *.Cu *.Mask))
  (pad 16 thru_hole circle (at 2.54 12.7) (size 1.524 1.524) (drill 0.762) (layers *.Cu *.Mask))
  (pad 15 thru_hole circle (at 2.54 15.24) (size 1.524 1.524) (drill 0.762) (layers *.Cu *.Mask))
  (pad 14 thru_hole circle (at -5.08 15.24) (size 1.524 1.524) (drill 0.762) (layers *.Cu *.Mask))
  (pad 13 thru_hole circle (at -5.08 12.7) (size 1.524 1.524) (drill 0.762) (layers *.Cu *.Mask))
  (pad 12 thru_hole circle (at -5.08 10.16) (size 1.524 1.524) (drill 0.762) (layers *.Cu *.Mask))
  (pad 11 thru_hole circle (at -5.08 7.62) (size 1.524 1.524) (drill 0.762) (layers *.Cu *.Mask))
  (pad 10 thru_hole circle (at -5.08 5.08) (size 1.524 1.524) (drill 0.762) (layers *.Cu *.Mask))
  (pad 9 thru_hole circle (at -5.08 2.54) (size 1.524 1.524) (drill 0.762) (layers *.Cu *.Mask))
  (pad 8 thru_hole circle (at -5.08 0) (size 1.524 1.524) (drill 0.762) (layers *.Cu *.Mask))
  (pad 7 thru_hole circle (at -5.08 -2.54) (size 1.524 1.524) (drill 0.762) (layers *.Cu *.Mask))
  (pad 6 thru_hole circle (at -5.08 -5.08) (size 1.524 1.524) (drill 0.762) (layers *.Cu *.Mask))
  (pad 5 thru_hole circle (at -5.08 -7.62) (size 1.524 1.524) (drill 0.762) (layers *.Cu *.Mask))
  (pad 4 thru_hole circle (at -5.08 -10.16) (size 1.524 1.524) (drill 0.762) (layers *.Cu *.Mask))
  (pad 3 thru_hole circle (at -5.08 -12.7) (size 1.524 1.524) (drill 0.762) (layers *.Cu *.Mask))
  (pad 2 thru_hole circle (at -5.08 -15.24) (size 1.524 1.524) (drill 0.762) (layers *.Cu *.Mask))
  (pad 1 thru_hole circle (at -5.08 -17.78) (size 1.524 1.524) (drill 0.762) (layers *.Cu *.Mask))
)
